('E:\\DigLab\\PyCharm_Projects\\v0.2\\volume_calculator_tool_v0.2\\src\\build\\Main_Application\\PYZ-00.pyz',
 [('os', 'd:\\anaconda\\envs\\gdal_enabled\\lib\\os.py', 'PYMODULE'),
  ('subprocess',
   'd:\\anaconda\\envs\\gdal_enabled\\lib\\subprocess.py',
   'PYMODULE'),
  ('selectors',
   'd:\\anaconda\\envs\\gdal_enabled\\lib\\selectors.py',
   'PYMODULE'),
  ('threading',
   'd:\\anaconda\\envs\\gdal_enabled\\lib\\threading.py',
   'PYMODULE'),
  ('_threading_local',
   'd:\\anaconda\\envs\\gdal_enabled\\lib\\_threading_local.py',
   'PYMODULE'),
  ('contextlib',
   'd:\\anaconda\\envs\\gdal_enabled\\lib\\contextlib.py',
   'PYMODULE'),
  ('signal', 'd:\\anaconda\\envs\\gdal_enabled\\lib\\signal.py', 'PYMODULE'),
  ('_strptime',
   'd:\\anaconda\\envs\\gdal_enabled\\lib\\_strptime.py',
   'PYMODULE'),
  ('datetime',
   'd:\\anaconda\\envs\\gdal_enabled\\lib\\datetime.py',
   'PYMODULE'),
  ('calendar',
   'd:\\anaconda\\envs\\gdal_enabled\\lib\\calendar.py',
   'PYMODULE'),
  ('argparse',
   'd:\\anaconda\\envs\\gdal_enabled\\lib\\argparse.py',
   'PYMODULE'),
  ('textwrap',
   'd:\\anaconda\\envs\\gdal_enabled\\lib\\textwrap.py',
   'PYMODULE'),
  ('copy', 'd:\\anaconda\\envs\\gdal_enabled\\lib\\copy.py', 'PYMODULE'),
  ('gettext', 'd:\\anaconda\\envs\\gdal_enabled\\lib\\gettext.py', 'PYMODULE'),
  ('struct', 'd:\\anaconda\\envs\\gdal_enabled\\lib\\struct.py', 'PYMODULE'),
  ('ntpath', 'd:\\anaconda\\envs\\gdal_enabled\\lib\\ntpath.py', 'PYMODULE'),
  ('string', 'd:\\anaconda\\envs\\gdal_enabled\\lib\\string.py', 'PYMODULE'),
  ('genericpath',
   'd:\\anaconda\\envs\\gdal_enabled\\lib\\genericpath.py',
   'PYMODULE'),
  ('posixpath',
   'd:\\anaconda\\envs\\gdal_enabled\\lib\\posixpath.py',
   'PYMODULE'),
  ('stat', 'd:\\anaconda\\envs\\gdal_enabled\\lib\\stat.py', 'PYMODULE'),
  ('tempfile',
   'd:\\anaconda\\envs\\gdal_enabled\\lib\\tempfile.py',
   'PYMODULE'),
  ('random', 'd:\\anaconda\\envs\\gdal_enabled\\lib\\random.py', 'PYMODULE'),
  ('bisect', 'd:\\anaconda\\envs\\gdal_enabled\\lib\\bisect.py', 'PYMODULE'),
  ('hashlib', 'd:\\anaconda\\envs\\gdal_enabled\\lib\\hashlib.py', 'PYMODULE'),
  ('logging',
   'd:\\anaconda\\envs\\gdal_enabled\\lib\\logging\\__init__.py',
   'PYMODULE'),
  ('pickle', 'd:\\anaconda\\envs\\gdal_enabled\\lib\\pickle.py', 'PYMODULE'),
  ('pprint', 'd:\\anaconda\\envs\\gdal_enabled\\lib\\pprint.py', 'PYMODULE'),
  ('doctest', 'd:\\anaconda\\envs\\gdal_enabled\\lib\\doctest.py', 'PYMODULE'),
  ('unittest',
   'd:\\anaconda\\envs\\gdal_enabled\\lib\\unittest\\__init__.py',
   'PYMODULE'),
  ('unittest.signals',
   'd:\\anaconda\\envs\\gdal_enabled\\lib\\unittest\\signals.py',
   'PYMODULE'),
  ('unittest.main',
   'd:\\anaconda\\envs\\gdal_enabled\\lib\\unittest\\main.py',
   'PYMODULE'),
  ('unittest.runner',
   'd:\\anaconda\\envs\\gdal_enabled\\lib\\unittest\\runner.py',
   'PYMODULE'),
  ('unittest.loader',
   'd:\\anaconda\\envs\\gdal_enabled\\lib\\unittest\\loader.py',
   'PYMODULE'),
  ('fnmatch', 'd:\\anaconda\\envs\\gdal_enabled\\lib\\fnmatch.py', 'PYMODULE'),
  ('unittest.suite',
   'd:\\anaconda\\envs\\gdal_enabled\\lib\\unittest\\suite.py',
   'PYMODULE'),
  ('unittest.case',
   'd:\\anaconda\\envs\\gdal_enabled\\lib\\unittest\\case.py',
   'PYMODULE'),
  ('unittest.result',
   'd:\\anaconda\\envs\\gdal_enabled\\lib\\unittest\\result.py',
   'PYMODULE'),
  ('unittest.util',
   'd:\\anaconda\\envs\\gdal_enabled\\lib\\unittest\\util.py',
   'PYMODULE'),
  ('pdb', 'd:\\anaconda\\envs\\gdal_enabled\\lib\\pdb.py', 'PYMODULE'),
  ('getopt', 'd:\\anaconda\\envs\\gdal_enabled\\lib\\getopt.py', 'PYMODULE'),
  ('pydoc', 'd:\\anaconda\\envs\\gdal_enabled\\lib\\pydoc.py', 'PYMODULE'),
  ('webbrowser',
   'd:\\anaconda\\envs\\gdal_enabled\\lib\\webbrowser.py',
   'PYMODULE'),
  ('socket', 'd:\\anaconda\\envs\\gdal_enabled\\lib\\socket.py', 'PYMODULE'),
  ('email.message',
   'd:\\anaconda\\envs\\gdal_enabled\\lib\\email\\message.py',
   'PYMODULE'),
  ('email.policy',
   'd:\\anaconda\\envs\\gdal_enabled\\lib\\email\\policy.py',
   'PYMODULE'),
  ('email.contentmanager',
   'd:\\anaconda\\envs\\gdal_enabled\\lib\\email\\contentmanager.py',
   'PYMODULE'),
  ('email.quoprimime',
   'd:\\anaconda\\envs\\gdal_enabled\\lib\\email\\quoprimime.py',
   'PYMODULE'),
  ('email.headerregistry',
   'd:\\anaconda\\envs\\gdal_enabled\\lib\\email\\headerregistry.py',
   'PYMODULE'),
  ('email._header_value_parser',
   'd:\\anaconda\\envs\\gdal_enabled\\lib\\email\\_header_value_parser.py',
   'PYMODULE'),
  ('urllib',
   'd:\\anaconda\\envs\\gdal_enabled\\lib\\urllib\\__init__.py',
   'PYMODULE'),
  ('email.iterators',
   'd:\\anaconda\\envs\\gdal_enabled\\lib\\email\\iterators.py',
   'PYMODULE'),
  ('email.generator',
   'd:\\anaconda\\envs\\gdal_enabled\\lib\\email\\generator.py',
   'PYMODULE'),
  ('email._encoded_words',
   'd:\\anaconda\\envs\\gdal_enabled\\lib\\email\\_encoded_words.py',
   'PYMODULE'),
  ('base64', 'd:\\anaconda\\envs\\gdal_enabled\\lib\\base64.py', 'PYMODULE'),
  ('email.charset',
   'd:\\anaconda\\envs\\gdal_enabled\\lib\\email\\charset.py',
   'PYMODULE'),
  ('email.encoders',
   'd:\\anaconda\\envs\\gdal_enabled\\lib\\email\\encoders.py',
   'PYMODULE'),
  ('email.base64mime',
   'd:\\anaconda\\envs\\gdal_enabled\\lib\\email\\base64mime.py',
   'PYMODULE'),
  ('email._policybase',
   'd:\\anaconda\\envs\\gdal_enabled\\lib\\email\\_policybase.py',
   'PYMODULE'),
  ('email.header',
   'd:\\anaconda\\envs\\gdal_enabled\\lib\\email\\header.py',
   'PYMODULE'),
  ('email.errors',
   'd:\\anaconda\\envs\\gdal_enabled\\lib\\email\\errors.py',
   'PYMODULE'),
  ('email.utils',
   'd:\\anaconda\\envs\\gdal_enabled\\lib\\email\\utils.py',
   'PYMODULE'),
  ('email._parseaddr',
   'd:\\anaconda\\envs\\gdal_enabled\\lib\\email\\_parseaddr.py',
   'PYMODULE'),
  ('email',
   'd:\\anaconda\\envs\\gdal_enabled\\lib\\email\\__init__.py',
   'PYMODULE'),
  ('email.parser',
   'd:\\anaconda\\envs\\gdal_enabled\\lib\\email\\parser.py',
   'PYMODULE'),
  ('email.feedparser',
   'd:\\anaconda\\envs\\gdal_enabled\\lib\\email\\feedparser.py',
   'PYMODULE'),
  ('quopri', 'd:\\anaconda\\envs\\gdal_enabled\\lib\\quopri.py', 'PYMODULE'),
  ('uu', 'd:\\anaconda\\envs\\gdal_enabled\\lib\\uu.py', 'PYMODULE'),
  ('optparse',
   'd:\\anaconda\\envs\\gdal_enabled\\lib\\optparse.py',
   'PYMODULE'),
  ('http.server',
   'd:\\anaconda\\envs\\gdal_enabled\\lib\\http\\server.py',
   'PYMODULE'),
  ('http',
   'd:\\anaconda\\envs\\gdal_enabled\\lib\\http\\__init__.py',
   'PYMODULE'),
  ('socketserver',
   'd:\\anaconda\\envs\\gdal_enabled\\lib\\socketserver.py',
   'PYMODULE'),
  ('mimetypes',
   'd:\\anaconda\\envs\\gdal_enabled\\lib\\mimetypes.py',
   'PYMODULE'),
  ('http.client',
   'd:\\anaconda\\envs\\gdal_enabled\\lib\\http\\client.py',
   'PYMODULE'),
  ('ssl', 'd:\\anaconda\\envs\\gdal_enabled\\lib\\ssl.py', 'PYMODULE'),
  ('html',
   'd:\\anaconda\\envs\\gdal_enabled\\lib\\html\\__init__.py',
   'PYMODULE'),
  ('html.entities',
   'd:\\anaconda\\envs\\gdal_enabled\\lib\\html\\entities.py',
   'PYMODULE'),
  ('pydoc_data.topics',
   'd:\\anaconda\\envs\\gdal_enabled\\lib\\pydoc_data\\topics.py',
   'PYMODULE'),
  ('pydoc_data',
   'd:\\anaconda\\envs\\gdal_enabled\\lib\\pydoc_data\\__init__.py',
   'PYMODULE'),
  ('tty', 'd:\\anaconda\\envs\\gdal_enabled\\lib\\tty.py', 'PYMODULE'),
  ('urllib.parse',
   'd:\\anaconda\\envs\\gdal_enabled\\lib\\urllib\\parse.py',
   'PYMODULE'),
  ('tokenize',
   'd:\\anaconda\\envs\\gdal_enabled\\lib\\tokenize.py',
   'PYMODULE'),
  ('token', 'd:\\anaconda\\envs\\gdal_enabled\\lib\\token.py', 'PYMODULE'),
  ('sysconfig',
   'd:\\anaconda\\envs\\gdal_enabled\\lib\\sysconfig.py',
   'PYMODULE'),
  ('_osx_support',
   'd:\\anaconda\\envs\\gdal_enabled\\lib\\_osx_support.py',
   'PYMODULE'),
  ('distutils.log',
   'd:\\anaconda\\envs\\gdal_enabled\\lib\\distutils\\log.py',
   'PYMODULE'),
  ('distutils',
   'd:\\anaconda\\envs\\gdal_enabled\\lib\\distutils\\__init__.py',
   'PYMODULE'),
  ('distutils.archive_util',
   'd:\\anaconda\\envs\\gdal_enabled\\lib\\distutils\\archive_util.py',
   'PYMODULE'),
  ('tarfile', 'd:\\anaconda\\envs\\gdal_enabled\\lib\\tarfile.py', 'PYMODULE'),
  ('gzip', 'd:\\anaconda\\envs\\gdal_enabled\\lib\\gzip.py', 'PYMODULE'),
  ('_compression',
   'd:\\anaconda\\envs\\gdal_enabled\\lib\\_compression.py',
   'PYMODULE'),
  ('lzma', 'd:\\anaconda\\envs\\gdal_enabled\\lib\\lzma.py', 'PYMODULE'),
  ('bz2', 'd:\\anaconda\\envs\\gdal_enabled\\lib\\bz2.py', 'PYMODULE'),
  ('distutils.dir_util',
   'd:\\anaconda\\envs\\gdal_enabled\\lib\\distutils\\dir_util.py',
   'PYMODULE'),
  ('distutils.file_util',
   'd:\\anaconda\\envs\\gdal_enabled\\lib\\distutils\\file_util.py',
   'PYMODULE'),
  ('distutils.dep_util',
   'd:\\anaconda\\envs\\gdal_enabled\\lib\\distutils\\dep_util.py',
   'PYMODULE'),
  ('distutils.spawn',
   'd:\\anaconda\\envs\\gdal_enabled\\lib\\distutils\\spawn.py',
   'PYMODULE'),
  ('distutils.debug',
   'd:\\anaconda\\envs\\gdal_enabled\\lib\\distutils\\debug.py',
   'PYMODULE'),
  ('distutils.errors',
   'd:\\anaconda\\envs\\gdal_enabled\\lib\\distutils\\errors.py',
   'PYMODULE'),
  ('zipfile', 'd:\\anaconda\\envs\\gdal_enabled\\lib\\zipfile.py', 'PYMODULE'),
  ('py_compile',
   'd:\\anaconda\\envs\\gdal_enabled\\lib\\py_compile.py',
   'PYMODULE'),
  ('distutils.ccompiler',
   'd:\\anaconda\\envs\\gdal_enabled\\lib\\distutils\\ccompiler.py',
   'PYMODULE'),
  ('distutils.fancy_getopt',
   'd:\\anaconda\\envs\\gdal_enabled\\lib\\distutils\\fancy_getopt.py',
   'PYMODULE'),
  ('distutils.util',
   'd:\\anaconda\\envs\\gdal_enabled\\lib\\distutils\\util.py',
   'PYMODULE'),
  ('distutils.filelist',
   'd:\\anaconda\\envs\\gdal_enabled\\lib\\distutils\\filelist.py',
   'PYMODULE'),
  ('lib2to3.refactor',
   'd:\\anaconda\\envs\\gdal_enabled\\lib\\lib2to3\\refactor.py',
   'PYMODULE'),
  ('multiprocessing',
   'd:\\anaconda\\envs\\gdal_enabled\\lib\\multiprocessing\\__init__.py',
   'PYMODULE'),
  ('multiprocessing.spawn',
   'd:\\anaconda\\envs\\gdal_enabled\\lib\\multiprocessing\\spawn.py',
   'PYMODULE'),
  ('multiprocessing.semaphore_tracker',
   'd:\\anaconda\\envs\\gdal_enabled\\lib\\multiprocessing\\semaphore_tracker.py',
   'PYMODULE'),
  ('multiprocessing.pool',
   'd:\\anaconda\\envs\\gdal_enabled\\lib\\multiprocessing\\pool.py',
   'PYMODULE'),
  ('multiprocessing.dummy',
   'd:\\anaconda\\envs\\gdal_enabled\\lib\\multiprocessing\\dummy\\__init__.py',
   'PYMODULE'),
  ('multiprocessing.dummy.connection',
   'd:\\anaconda\\envs\\gdal_enabled\\lib\\multiprocessing\\dummy\\connection.py',
   'PYMODULE'),
  ('queue', 'd:\\anaconda\\envs\\gdal_enabled\\lib\\queue.py', 'PYMODULE'),
  ('multiprocessing.reduction',
   'd:\\anaconda\\envs\\gdal_enabled\\lib\\multiprocessing\\reduction.py',
   'PYMODULE'),
  ('multiprocessing.resource_sharer',
   'd:\\anaconda\\envs\\gdal_enabled\\lib\\multiprocessing\\resource_sharer.py',
   'PYMODULE'),
  ('multiprocessing.connection',
   'd:\\anaconda\\envs\\gdal_enabled\\lib\\multiprocessing\\connection.py',
   'PYMODULE'),
  ('xmlrpc.client',
   'd:\\anaconda\\envs\\gdal_enabled\\lib\\xmlrpc\\client.py',
   'PYMODULE'),
  ('xmlrpc',
   'd:\\anaconda\\envs\\gdal_enabled\\lib\\xmlrpc\\__init__.py',
   'PYMODULE'),
  ('xml.parsers.expat',
   'd:\\anaconda\\envs\\gdal_enabled\\lib\\xml\\parsers\\expat.py',
   'PYMODULE'),
  ('xml.parsers',
   'd:\\anaconda\\envs\\gdal_enabled\\lib\\xml\\parsers\\__init__.py',
   'PYMODULE'),
  ('xml',
   'd:\\anaconda\\envs\\gdal_enabled\\lib\\xml\\__init__.py',
   'PYMODULE'),
  ('xml.sax.expatreader',
   'd:\\anaconda\\envs\\gdal_enabled\\lib\\xml\\sax\\expatreader.py',
   'PYMODULE'),
  ('xml.sax.saxutils',
   'd:\\anaconda\\envs\\gdal_enabled\\lib\\xml\\sax\\saxutils.py',
   'PYMODULE'),
  ('urllib.request',
   'd:\\anaconda\\envs\\gdal_enabled\\lib\\urllib\\request.py',
   'PYMODULE'),
  ('getpass', 'd:\\anaconda\\envs\\gdal_enabled\\lib\\getpass.py', 'PYMODULE'),
  ('nturl2path',
   'd:\\anaconda\\envs\\gdal_enabled\\lib\\nturl2path.py',
   'PYMODULE'),
  ('ftplib', 'd:\\anaconda\\envs\\gdal_enabled\\lib\\ftplib.py', 'PYMODULE'),
  ('netrc', 'd:\\anaconda\\envs\\gdal_enabled\\lib\\netrc.py', 'PYMODULE'),
  ('http.cookiejar',
   'd:\\anaconda\\envs\\gdal_enabled\\lib\\http\\cookiejar.py',
   'PYMODULE'),
  ('urllib.response',
   'd:\\anaconda\\envs\\gdal_enabled\\lib\\urllib\\response.py',
   'PYMODULE'),
  ('urllib.error',
   'd:\\anaconda\\envs\\gdal_enabled\\lib\\urllib\\error.py',
   'PYMODULE'),
  ('xml.sax',
   'd:\\anaconda\\envs\\gdal_enabled\\lib\\xml\\sax\\__init__.py',
   'PYMODULE'),
  ('xml.sax.handler',
   'd:\\anaconda\\envs\\gdal_enabled\\lib\\xml\\sax\\handler.py',
   'PYMODULE'),
  ('xml.sax._exceptions',
   'd:\\anaconda\\envs\\gdal_enabled\\lib\\xml\\sax\\_exceptions.py',
   'PYMODULE'),
  ('xml.sax.xmlreader',
   'd:\\anaconda\\envs\\gdal_enabled\\lib\\xml\\sax\\xmlreader.py',
   'PYMODULE'),
  ('decimal', 'd:\\anaconda\\envs\\gdal_enabled\\lib\\decimal.py', 'PYMODULE'),
  ('_pydecimal',
   'd:\\anaconda\\envs\\gdal_enabled\\lib\\_pydecimal.py',
   'PYMODULE'),
  ('contextvars',
   'd:\\anaconda\\envs\\gdal_enabled\\lib\\contextvars.py',
   'PYMODULE'),
  ('numbers', 'd:\\anaconda\\envs\\gdal_enabled\\lib\\numbers.py', 'PYMODULE'),
  ('hmac', 'd:\\anaconda\\envs\\gdal_enabled\\lib\\hmac.py', 'PYMODULE'),
  ('multiprocessing.context',
   'd:\\anaconda\\envs\\gdal_enabled\\lib\\multiprocessing\\context.py',
   'PYMODULE'),
  ('multiprocessing.popen_spawn_win32',
   'd:\\anaconda\\envs\\gdal_enabled\\lib\\multiprocessing\\popen_spawn_win32.py',
   'PYMODULE'),
  ('multiprocessing.popen_forkserver',
   'd:\\anaconda\\envs\\gdal_enabled\\lib\\multiprocessing\\popen_forkserver.py',
   'PYMODULE'),
  ('multiprocessing.popen_spawn_posix',
   'd:\\anaconda\\envs\\gdal_enabled\\lib\\multiprocessing\\popen_spawn_posix.py',
   'PYMODULE'),
  ('multiprocessing.popen_fork',
   'd:\\anaconda\\envs\\gdal_enabled\\lib\\multiprocessing\\popen_fork.py',
   'PYMODULE'),
  ('multiprocessing.forkserver',
   'd:\\anaconda\\envs\\gdal_enabled\\lib\\multiprocessing\\forkserver.py',
   'PYMODULE'),
  ('multiprocessing.sharedctypes',
   'd:\\anaconda\\envs\\gdal_enabled\\lib\\multiprocessing\\sharedctypes.py',
   'PYMODULE'),
  ('multiprocessing.heap',
   'd:\\anaconda\\envs\\gdal_enabled\\lib\\multiprocessing\\heap.py',
   'PYMODULE'),
  ('ctypes',
   'd:\\anaconda\\envs\\gdal_enabled\\lib\\ctypes\\__init__.py',
   'PYMODULE'),
  ('ctypes._endian',
   'd:\\anaconda\\envs\\gdal_enabled\\lib\\ctypes\\_endian.py',
   'PYMODULE'),
  ('multiprocessing.queues',
   'd:\\anaconda\\envs\\gdal_enabled\\lib\\multiprocessing\\queues.py',
   'PYMODULE'),
  ('multiprocessing.synchronize',
   'd:\\anaconda\\envs\\gdal_enabled\\lib\\multiprocessing\\synchronize.py',
   'PYMODULE'),
  ('multiprocessing.managers',
   'd:\\anaconda\\envs\\gdal_enabled\\lib\\multiprocessing\\managers.py',
   'PYMODULE'),
  ('multiprocessing.util',
   'd:\\anaconda\\envs\\gdal_enabled\\lib\\multiprocessing\\util.py',
   'PYMODULE'),
  ('multiprocessing.process',
   'd:\\anaconda\\envs\\gdal_enabled\\lib\\multiprocessing\\process.py',
   'PYMODULE'),
  ('lib2to3.btm_matcher',
   'd:\\anaconda\\envs\\gdal_enabled\\lib\\lib2to3\\btm_matcher.py',
   'PYMODULE'),
  ('lib2to3.btm_utils',
   'd:\\anaconda\\envs\\gdal_enabled\\lib\\lib2to3\\btm_utils.py',
   'PYMODULE'),
  ('lib2to3.pgen2.grammar',
   'd:\\anaconda\\envs\\gdal_enabled\\lib\\lib2to3\\pgen2\\grammar.py',
   'PYMODULE'),
  ('lib2to3.pygram',
   'd:\\anaconda\\envs\\gdal_enabled\\lib\\lib2to3\\pygram.py',
   'PYMODULE'),
  ('lib2to3.pytree',
   'd:\\anaconda\\envs\\gdal_enabled\\lib\\lib2to3\\pytree.py',
   'PYMODULE'),
  ('lib2to3',
   'd:\\anaconda\\envs\\gdal_enabled\\lib\\lib2to3\\__init__.py',
   'PYMODULE'),
  ('lib2to3.patcomp',
   'd:\\anaconda\\envs\\gdal_enabled\\lib\\lib2to3\\patcomp.py',
   'PYMODULE'),
  ('lib2to3.pgen2.parse',
   'd:\\anaconda\\envs\\gdal_enabled\\lib\\lib2to3\\pgen2\\parse.py',
   'PYMODULE'),
  ('lib2to3.pgen2.literals',
   'd:\\anaconda\\envs\\gdal_enabled\\lib\\lib2to3\\pgen2\\literals.py',
   'PYMODULE'),
  ('lib2to3.fixer_util',
   'd:\\anaconda\\envs\\gdal_enabled\\lib\\lib2to3\\fixer_util.py',
   'PYMODULE'),
  ('lib2to3.pgen2.token',
   'd:\\anaconda\\envs\\gdal_enabled\\lib\\lib2to3\\pgen2\\token.py',
   'PYMODULE'),
  ('lib2to3.pgen2.tokenize',
   'd:\\anaconda\\envs\\gdal_enabled\\lib\\lib2to3\\pgen2\\tokenize.py',
   'PYMODULE'),
  ('lib2to3.pgen2.driver',
   'd:\\anaconda\\envs\\gdal_enabled\\lib\\lib2to3\\pgen2\\driver.py',
   'PYMODULE'),
  ('lib2to3.pgen2.pgen',
   'd:\\anaconda\\envs\\gdal_enabled\\lib\\lib2to3\\pgen2\\pgen.py',
   'PYMODULE'),
  ('lib2to3.pgen2',
   'd:\\anaconda\\envs\\gdal_enabled\\lib\\lib2to3\\pgen2\\__init__.py',
   'PYMODULE'),
  ('distutils.sysconfig',
   'd:\\anaconda\\envs\\gdal_enabled\\lib\\distutils\\sysconfig.py',
   'PYMODULE'),
  ('distutils.text_file',
   'd:\\anaconda\\envs\\gdal_enabled\\lib\\distutils\\text_file.py',
   'PYMODULE'),
  ('platform',
   'd:\\anaconda\\envs\\gdal_enabled\\lib\\platform.py',
   'PYMODULE'),
  ('plistlib',
   'd:\\anaconda\\envs\\gdal_enabled\\lib\\plistlib.py',
   'PYMODULE'),
  ('pkgutil', 'd:\\anaconda\\envs\\gdal_enabled\\lib\\pkgutil.py', 'PYMODULE'),
  ('importlib',
   'd:\\anaconda\\envs\\gdal_enabled\\lib\\importlib\\__init__.py',
   'PYMODULE'),
  ('importlib.abc',
   'd:\\anaconda\\envs\\gdal_enabled\\lib\\importlib\\abc.py',
   'PYMODULE'),
  ('importlib.util',
   'd:\\anaconda\\envs\\gdal_enabled\\lib\\importlib\\util.py',
   'PYMODULE'),
  ('importlib.machinery',
   'd:\\anaconda\\envs\\gdal_enabled\\lib\\importlib\\machinery.py',
   'PYMODULE'),
  ('importlib._bootstrap_external',
   'd:\\anaconda\\envs\\gdal_enabled\\lib\\importlib\\_bootstrap_external.py',
   'PYMODULE'),
  ('importlib._bootstrap',
   'd:\\anaconda\\envs\\gdal_enabled\\lib\\importlib\\_bootstrap.py',
   'PYMODULE'),
  ('runpy', 'd:\\anaconda\\envs\\gdal_enabled\\lib\\runpy.py', 'PYMODULE'),
  ('shlex', 'd:\\anaconda\\envs\\gdal_enabled\\lib\\shlex.py', 'PYMODULE'),
  ('glob', 'd:\\anaconda\\envs\\gdal_enabled\\lib\\glob.py', 'PYMODULE'),
  ('code', 'd:\\anaconda\\envs\\gdal_enabled\\lib\\code.py', 'PYMODULE'),
  ('codeop', 'd:\\anaconda\\envs\\gdal_enabled\\lib\\codeop.py', 'PYMODULE'),
  ('dis', 'd:\\anaconda\\envs\\gdal_enabled\\lib\\dis.py', 'PYMODULE'),
  ('opcode', 'd:\\anaconda\\envs\\gdal_enabled\\lib\\opcode.py', 'PYMODULE'),
  ('bdb', 'd:\\anaconda\\envs\\gdal_enabled\\lib\\bdb.py', 'PYMODULE'),
  ('cmd', 'd:\\anaconda\\envs\\gdal_enabled\\lib\\cmd.py', 'PYMODULE'),
  ('inspect', 'd:\\anaconda\\envs\\gdal_enabled\\lib\\inspect.py', 'PYMODULE'),
  ('ast', 'd:\\anaconda\\envs\\gdal_enabled\\lib\\ast.py', 'PYMODULE'),
  ('difflib', 'd:\\anaconda\\envs\\gdal_enabled\\lib\\difflib.py', 'PYMODULE'),
  ('__future__',
   'd:\\anaconda\\envs\\gdal_enabled\\lib\\__future__.py',
   'PYMODULE'),
  ('_compat_pickle',
   'd:\\anaconda\\envs\\gdal_enabled\\lib\\_compat_pickle.py',
   'PYMODULE'),
  ('shutil', 'd:\\anaconda\\envs\\gdal_enabled\\lib\\shutil.py', 'PYMODULE'),
  ('pkg_resources',
   'd:\\anaconda\\envs\\gdal_enabled\\lib\\site-packages\\pkg_resources\\__init__.py',
   'PYMODULE'),
  ('pkg_resources.py2_warn',
   'd:\\anaconda\\envs\\gdal_enabled\\lib\\site-packages\\pkg_resources\\py2_warn.py',
   'PYMODULE'),
  ('pkg_resources._vendor.packaging.markers',
   'd:\\anaconda\\envs\\gdal_enabled\\lib\\site-packages\\pkg_resources\\_vendor\\packaging\\markers.py',
   'PYMODULE'),
  ('pkg_resources._vendor.packaging.requirements',
   'd:\\anaconda\\envs\\gdal_enabled\\lib\\site-packages\\pkg_resources\\_vendor\\packaging\\requirements.py',
   'PYMODULE'),
  ('pkg_resources._vendor.packaging._structures',
   'd:\\anaconda\\envs\\gdal_enabled\\lib\\site-packages\\pkg_resources\\_vendor\\packaging\\_structures.py',
   'PYMODULE'),
  ('pkg_resources._vendor.packaging.specifiers',
   'd:\\anaconda\\envs\\gdal_enabled\\lib\\site-packages\\pkg_resources\\_vendor\\packaging\\specifiers.py',
   'PYMODULE'),
  ('pkg_resources._vendor',
   'd:\\anaconda\\envs\\gdal_enabled\\lib\\site-packages\\pkg_resources\\_vendor\\__init__.py',
   'PYMODULE'),
  ('pkg_resources._vendor.packaging.__about__',
   'd:\\anaconda\\envs\\gdal_enabled\\lib\\site-packages\\pkg_resources\\_vendor\\packaging\\__about__.py',
   'PYMODULE'),
  ('pkg_resources._vendor.appdirs',
   'd:\\anaconda\\envs\\gdal_enabled\\lib\\site-packages\\pkg_resources\\_vendor\\appdirs.py',
   'PYMODULE'),
  ('pkg_resources._vendor.packaging.utils',
   'd:\\anaconda\\envs\\gdal_enabled\\lib\\site-packages\\pkg_resources\\_vendor\\packaging\\utils.py',
   'PYMODULE'),
  ('pkg_resources._vendor.packaging._compat',
   'd:\\anaconda\\envs\\gdal_enabled\\lib\\site-packages\\pkg_resources\\_vendor\\packaging\\_compat.py',
   'PYMODULE'),
  ('pkg_resources._vendor.packaging.version',
   'd:\\anaconda\\envs\\gdal_enabled\\lib\\site-packages\\pkg_resources\\_vendor\\packaging\\version.py',
   'PYMODULE'),
  ('pkg_resources._vendor.pyparsing',
   'd:\\anaconda\\envs\\gdal_enabled\\lib\\site-packages\\pkg_resources\\_vendor\\pyparsing.py',
   'PYMODULE'),
  ('uuid', 'd:\\anaconda\\envs\\gdal_enabled\\lib\\uuid.py', 'PYMODULE'),
  ('ctypes.util',
   'd:\\anaconda\\envs\\gdal_enabled\\lib\\ctypes\\util.py',
   'PYMODULE'),
  ('ctypes._aix',
   'd:\\anaconda\\envs\\gdal_enabled\\lib\\ctypes\\_aix.py',
   'PYMODULE'),
  ('ctypes.macholib.dyld',
   'd:\\anaconda\\envs\\gdal_enabled\\lib\\ctypes\\macholib\\dyld.py',
   'PYMODULE'),
  ('ctypes.macholib',
   'd:\\anaconda\\envs\\gdal_enabled\\lib\\ctypes\\macholib\\__init__.py',
   'PYMODULE'),
  ('ctypes.macholib.dylib',
   'd:\\anaconda\\envs\\gdal_enabled\\lib\\ctypes\\macholib\\dylib.py',
   'PYMODULE'),
  ('ctypes.macholib.framework',
   'd:\\anaconda\\envs\\gdal_enabled\\lib\\ctypes\\macholib\\framework.py',
   'PYMODULE'),
  ('pkg_resources._vendor.packaging',
   'd:\\anaconda\\envs\\gdal_enabled\\lib\\site-packages\\pkg_resources\\_vendor\\packaging\\__init__.py',
   'PYMODULE'),
  ('pkg_resources._vendor.six',
   'd:\\anaconda\\envs\\gdal_enabled\\lib\\site-packages\\pkg_resources\\_vendor\\six.py',
   'PYMODULE'),
  ('pkg_resources.py31compat',
   'd:\\anaconda\\envs\\gdal_enabled\\lib\\site-packages\\pkg_resources\\py31compat.py',
   'PYMODULE'),
  ('pkg_resources.extern',
   'd:\\anaconda\\envs\\gdal_enabled\\lib\\site-packages\\pkg_resources\\extern\\__init__.py',
   'PYMODULE'),
  ('imp', 'd:\\anaconda\\envs\\gdal_enabled\\lib\\imp.py', 'PYMODULE'),
  ('stringprep',
   'd:\\anaconda\\envs\\gdal_enabled\\lib\\stringprep.py',
   'PYMODULE'),
  ('_py_abc', 'd:\\anaconda\\envs\\gdal_enabled\\lib\\_py_abc.py', 'PYMODULE'),
  ('tracemalloc',
   'd:\\anaconda\\envs\\gdal_enabled\\lib\\tracemalloc.py',
   'PYMODULE'),
  ('typing', 'd:\\anaconda\\envs\\gdal_enabled\\lib\\typing.py', 'PYMODULE'),
  ('GUI',
   'E:\\DigLab\\PyCharm_Projects\\v0.2\\volume_calculator_tool_v0.2\\src\\GUI.py',
   'PYMODULE'),
  ('GraphProcessor',
   'E:\\DigLab\\PyCharm_Projects\\v0.2\\volume_calculator_tool_v0.2\\src\\GraphProcessor.py',
   'PYMODULE'),
  ('matplotlib.pyplot',
   'd:\\anaconda\\envs\\gdal_enabled\\lib\\site-packages\\matplotlib\\pyplot.py',
   'PYMODULE'),
  ('matplotlib.patheffects',
   'd:\\anaconda\\envs\\gdal_enabled\\lib\\site-packages\\matplotlib\\patheffects.py',
   'PYMODULE'),
  ('matplotlib.transforms',
   'd:\\anaconda\\envs\\gdal_enabled\\lib\\site-packages\\matplotlib\\transforms.py',
   'PYMODULE'),
  ('matplotlib.path',
   'd:\\anaconda\\envs\\gdal_enabled\\lib\\site-packages\\matplotlib\\path.py',
   'PYMODULE'),
  ('matplotlib.hatch',
   'd:\\anaconda\\envs\\gdal_enabled\\lib\\site-packages\\matplotlib\\hatch.py',
   'PYMODULE'),
  ('numpy.linalg',
   'd:\\anaconda\\envs\\gdal_enabled\\lib\\site-packages\\numpy\\linalg\\__init__.py',
   'PYMODULE'),
  ('numpy._pytesttester',
   'd:\\anaconda\\envs\\gdal_enabled\\lib\\site-packages\\numpy\\_pytesttester.py',
   'PYMODULE'),
  ('numpy.distutils.cpuinfo',
   'd:\\anaconda\\envs\\gdal_enabled\\lib\\site-packages\\numpy\\distutils\\cpuinfo.py',
   'PYMODULE'),
  ('numpy.distutils.compat',
   'd:\\anaconda\\envs\\gdal_enabled\\lib\\site-packages\\numpy\\distutils\\compat.py',
   'PYMODULE'),
  ('numpy.distutils',
   'd:\\anaconda\\envs\\gdal_enabled\\lib\\site-packages\\numpy\\distutils\\__init__.py',
   'PYMODULE'),
  ('numpy.distutils.fcompiler',
   'd:\\anaconda\\envs\\gdal_enabled\\lib\\site-packages\\numpy\\distutils\\fcompiler\\__init__.py',
   'PYMODULE'),
  ('numpy.distutils.command.config_compiler',
   'd:\\anaconda\\envs\\gdal_enabled\\lib\\site-packages\\numpy\\distutils\\command\\config_compiler.py',
   'PYMODULE'),
  ('numpy.distutils.command',
   'd:\\anaconda\\envs\\gdal_enabled\\lib\\site-packages\\numpy\\distutils\\command\\__init__.py',
   'PYMODULE'),
  ('numpy.distutils.command.egg_info',
   'd:\\anaconda\\envs\\gdal_enabled\\lib\\site-packages\\numpy\\distutils\\command\\egg_info.py',
   'PYMODULE'),
  ('setuptools.command.egg_info',
   'd:\\anaconda\\envs\\gdal_enabled\\lib\\site-packages\\setuptools\\command\\egg_info.py',
   'PYMODULE'),
  ('setuptools.glob',
   'd:\\anaconda\\envs\\gdal_enabled\\lib\\site-packages\\setuptools\\glob.py',
   'PYMODULE'),
  ('setuptools.unicode_utils',
   'd:\\anaconda\\envs\\gdal_enabled\\lib\\site-packages\\setuptools\\unicode_utils.py',
   'PYMODULE'),
  ('setuptools.command.bdist_egg',
   'd:\\anaconda\\envs\\gdal_enabled\\lib\\site-packages\\setuptools\\command\\bdist_egg.py',
   'PYMODULE'),
  ('setuptools.extension',
   'd:\\anaconda\\envs\\gdal_enabled\\lib\\site-packages\\setuptools\\extension.py',
   'PYMODULE'),
  ('setuptools.monkey',
   'd:\\anaconda\\envs\\gdal_enabled\\lib\\site-packages\\setuptools\\monkey.py',
   'PYMODULE'),
  ('distutils.extension',
   'd:\\anaconda\\envs\\gdal_enabled\\lib\\distutils\\extension.py',
   'PYMODULE'),
  ('setuptools.command',
   'd:\\anaconda\\envs\\gdal_enabled\\lib\\site-packages\\setuptools\\command\\__init__.py',
   'PYMODULE'),
  ('setuptools.command.install_scripts',
   'd:\\anaconda\\envs\\gdal_enabled\\lib\\site-packages\\setuptools\\command\\install_scripts.py',
   'PYMODULE'),
  ('setuptools.command.easy_install',
   'd:\\anaconda\\envs\\gdal_enabled\\lib\\site-packages\\setuptools\\command\\easy_install.py',
   'PYMODULE'),
  ('setuptools.dist',
   'd:\\anaconda\\envs\\gdal_enabled\\lib\\site-packages\\setuptools\\dist.py',
   'PYMODULE'),
  ('setuptools.installer',
   'd:\\anaconda\\envs\\gdal_enabled\\lib\\site-packages\\setuptools\\installer.py',
   'PYMODULE'),
  ('setuptools.py31compat',
   'd:\\anaconda\\envs\\gdal_enabled\\lib\\site-packages\\setuptools\\py31compat.py',
   'PYMODULE'),
  ('setuptools.config',
   'd:\\anaconda\\envs\\gdal_enabled\\lib\\site-packages\\setuptools\\config.py',
   'PYMODULE'),
  ('setuptools.windows_support',
   'd:\\anaconda\\envs\\gdal_enabled\\lib\\site-packages\\setuptools\\windows_support.py',
   'PYMODULE'),
  ('distutils.version',
   'd:\\anaconda\\envs\\gdal_enabled\\lib\\distutils\\version.py',
   'PYMODULE'),
  ('distutils.cmd',
   'd:\\anaconda\\envs\\gdal_enabled\\lib\\distutils\\cmd.py',
   'PYMODULE'),
  ('setuptools.wheel',
   'd:\\anaconda\\envs\\gdal_enabled\\lib\\site-packages\\setuptools\\wheel.py',
   'PYMODULE'),
  ('setuptools.package_index',
   'd:\\anaconda\\envs\\gdal_enabled\\lib\\site-packages\\setuptools\\package_index.py',
   'PYMODULE'),
  ('setuptools.py33compat',
   'd:\\anaconda\\envs\\gdal_enabled\\lib\\site-packages\\setuptools\\py33compat.py',
   'PYMODULE'),
  ('html.parser',
   'd:\\anaconda\\envs\\gdal_enabled\\lib\\html\\parser.py',
   'PYMODULE'),
  ('_markupbase',
   'd:\\anaconda\\envs\\gdal_enabled\\lib\\_markupbase.py',
   'PYMODULE'),
  ('setuptools.ssl_support',
   'd:\\anaconda\\envs\\gdal_enabled\\lib\\site-packages\\setuptools\\ssl_support.py',
   'PYMODULE'),
  ('wincertstore',
   'd:\\anaconda\\envs\\gdal_enabled\\lib\\site-packages\\wincertstore.py',
   'PYMODULE'),
  ('ctypes.wintypes',
   'd:\\anaconda\\envs\\gdal_enabled\\lib\\ctypes\\wintypes.py',
   'PYMODULE'),
  ('setuptools.archive_util',
   'd:\\anaconda\\envs\\gdal_enabled\\lib\\site-packages\\setuptools\\archive_util.py',
   'PYMODULE'),
  ('setuptools.py27compat',
   'd:\\anaconda\\envs\\gdal_enabled\\lib\\site-packages\\setuptools\\py27compat.py',
   'PYMODULE'),
  ('setuptools._imp',
   'd:\\anaconda\\envs\\gdal_enabled\\lib\\site-packages\\setuptools\\_imp.py',
   'PYMODULE'),
  ('setuptools.py34compat',
   'd:\\anaconda\\envs\\gdal_enabled\\lib\\site-packages\\setuptools\\py34compat.py',
   'PYMODULE'),
  ('setuptools.sandbox',
   'd:\\anaconda\\envs\\gdal_enabled\\lib\\site-packages\\setuptools\\sandbox.py',
   'PYMODULE'),
  ('configparser',
   'd:\\anaconda\\envs\\gdal_enabled\\lib\\configparser.py',
   'PYMODULE'),
  ('site',
   'd:\\anaconda\\envs\\gdal_enabled\\lib\\site-packages\\PyInstaller\\fake-modules\\site.py',
   'PYMODULE'),
  ('distutils.command.build_scripts',
   'd:\\anaconda\\envs\\gdal_enabled\\lib\\distutils\\command\\build_scripts.py',
   'PYMODULE'),
  ('distutils.command',
   'd:\\anaconda\\envs\\gdal_enabled\\lib\\distutils\\command\\__init__.py',
   'PYMODULE'),
  ('distutils.command.install',
   'd:\\anaconda\\envs\\gdal_enabled\\lib\\distutils\\command\\install.py',
   'PYMODULE'),
  ('distutils.command.install_scripts',
   'd:\\anaconda\\envs\\gdal_enabled\\lib\\distutils\\command\\install_scripts.py',
   'PYMODULE'),
  ('distutils.command.bdist',
   'd:\\anaconda\\envs\\gdal_enabled\\lib\\distutils\\command\\bdist.py',
   'PYMODULE'),
  ('setuptools.command.setopt',
   'd:\\anaconda\\envs\\gdal_enabled\\lib\\site-packages\\setuptools\\command\\setopt.py',
   'PYMODULE'),
  ('setuptools.command.sdist',
   'd:\\anaconda\\envs\\gdal_enabled\\lib\\site-packages\\setuptools\\command\\sdist.py',
   'PYMODULE'),
  ('setuptools.command.py36compat',
   'd:\\anaconda\\envs\\gdal_enabled\\lib\\site-packages\\setuptools\\command\\py36compat.py',
   'PYMODULE'),
  ('distutils.command.sdist',
   'd:\\anaconda\\envs\\gdal_enabled\\lib\\distutils\\command\\sdist.py',
   'PYMODULE'),
  ('setuptools',
   'd:\\anaconda\\envs\\gdal_enabled\\lib\\site-packages\\setuptools\\__init__.py',
   'PYMODULE'),
  ('setuptools._vendor.pyparsing',
   'd:\\anaconda\\envs\\gdal_enabled\\lib\\site-packages\\setuptools\\_vendor\\pyparsing.py',
   'PYMODULE'),
  ('setuptools._vendor.packaging.specifiers',
   'd:\\anaconda\\envs\\gdal_enabled\\lib\\site-packages\\setuptools\\_vendor\\packaging\\specifiers.py',
   'PYMODULE'),
  ('setuptools._vendor.six',
   'd:\\anaconda\\envs\\gdal_enabled\\lib\\site-packages\\setuptools\\_vendor\\six.py',
   'PYMODULE'),
  ('setuptools._vendor.packaging.tags',
   'd:\\anaconda\\envs\\gdal_enabled\\lib\\site-packages\\setuptools\\_vendor\\packaging\\tags.py',
   'PYMODULE'),
  ('setuptools._vendor.packaging.utils',
   'd:\\anaconda\\envs\\gdal_enabled\\lib\\site-packages\\setuptools\\_vendor\\packaging\\utils.py',
   'PYMODULE'),
  ('setuptools._vendor.packaging.markers',
   'd:\\anaconda\\envs\\gdal_enabled\\lib\\site-packages\\setuptools\\_vendor\\packaging\\markers.py',
   'PYMODULE'),
  ('setuptools._vendor.packaging._structures',
   'd:\\anaconda\\envs\\gdal_enabled\\lib\\site-packages\\setuptools\\_vendor\\packaging\\_structures.py',
   'PYMODULE'),
  ('setuptools._vendor.packaging',
   'd:\\anaconda\\envs\\gdal_enabled\\lib\\site-packages\\setuptools\\_vendor\\packaging\\__init__.py',
   'PYMODULE'),
  ('setuptools._vendor.packaging.requirements',
   'd:\\anaconda\\envs\\gdal_enabled\\lib\\site-packages\\setuptools\\_vendor\\packaging\\requirements.py',
   'PYMODULE'),
  ('setuptools._vendor.packaging.__about__',
   'd:\\anaconda\\envs\\gdal_enabled\\lib\\site-packages\\setuptools\\_vendor\\packaging\\__about__.py',
   'PYMODULE'),
  ('setuptools._vendor.ordered_set',
   'd:\\anaconda\\envs\\gdal_enabled\\lib\\site-packages\\setuptools\\_vendor\\ordered_set.py',
   'PYMODULE'),
  ('setuptools._vendor.packaging._compat',
   'd:\\anaconda\\envs\\gdal_enabled\\lib\\site-packages\\setuptools\\_vendor\\packaging\\_compat.py',
   'PYMODULE'),
  ('setuptools._vendor.packaging.version',
   'd:\\anaconda\\envs\\gdal_enabled\\lib\\site-packages\\setuptools\\_vendor\\packaging\\version.py',
   'PYMODULE'),
  ('setuptools._vendor',
   'd:\\anaconda\\envs\\gdal_enabled\\lib\\site-packages\\setuptools\\_vendor\\__init__.py',
   'PYMODULE'),
  ('setuptools.msvc',
   'd:\\anaconda\\envs\\gdal_enabled\\lib\\site-packages\\setuptools\\msvc.py',
   'PYMODULE'),
  ('distutils.msvc9compiler',
   'd:\\anaconda\\envs\\gdal_enabled\\lib\\distutils\\msvc9compiler.py',
   'PYMODULE'),
  ('json',
   'd:\\anaconda\\envs\\gdal_enabled\\lib\\json\\__init__.py',
   'PYMODULE'),
  ('json.encoder',
   'd:\\anaconda\\envs\\gdal_enabled\\lib\\json\\encoder.py',
   'PYMODULE'),
  ('json.decoder',
   'd:\\anaconda\\envs\\gdal_enabled\\lib\\json\\decoder.py',
   'PYMODULE'),
  ('json.scanner',
   'd:\\anaconda\\envs\\gdal_enabled\\lib\\json\\scanner.py',
   'PYMODULE'),
  ('distutils.command.build_ext',
   'd:\\anaconda\\envs\\gdal_enabled\\lib\\distutils\\command\\build_ext.py',
   'PYMODULE'),
  ('distutils._msvccompiler',
   'd:\\anaconda\\envs\\gdal_enabled\\lib\\distutils\\_msvccompiler.py',
   'PYMODULE'),
  ('concurrent.futures',
   'd:\\anaconda\\envs\\gdal_enabled\\lib\\concurrent\\futures\\__init__.py',
   'PYMODULE'),
  ('concurrent.futures.thread',
   'd:\\anaconda\\envs\\gdal_enabled\\lib\\concurrent\\futures\\thread.py',
   'PYMODULE'),
  ('concurrent.futures.process',
   'd:\\anaconda\\envs\\gdal_enabled\\lib\\concurrent\\futures\\process.py',
   'PYMODULE'),
  ('concurrent.futures._base',
   'd:\\anaconda\\envs\\gdal_enabled\\lib\\concurrent\\futures\\_base.py',
   'PYMODULE'),
  ('concurrent',
   'd:\\anaconda\\envs\\gdal_enabled\\lib\\concurrent\\__init__.py',
   'PYMODULE'),
  ('setuptools.namespaces',
   'd:\\anaconda\\envs\\gdal_enabled\\lib\\site-packages\\setuptools\\namespaces.py',
   'PYMODULE'),
  ('setuptools.depends',
   'd:\\anaconda\\envs\\gdal_enabled\\lib\\site-packages\\setuptools\\depends.py',
   'PYMODULE'),
  ('setuptools.version',
   'd:\\anaconda\\envs\\gdal_enabled\\lib\\site-packages\\setuptools\\version.py',
   'PYMODULE'),
  ('setuptools._deprecation_warning',
   'd:\\anaconda\\envs\\gdal_enabled\\lib\\site-packages\\setuptools\\_deprecation_warning.py',
   'PYMODULE'),
  ('setuptools.extern',
   'd:\\anaconda\\envs\\gdal_enabled\\lib\\site-packages\\setuptools\\extern\\__init__.py',
   'PYMODULE'),
  ('numpy.distutils.command.develop',
   'd:\\anaconda\\envs\\gdal_enabled\\lib\\site-packages\\numpy\\distutils\\command\\develop.py',
   'PYMODULE'),
  ('setuptools.command.develop',
   'd:\\anaconda\\envs\\gdal_enabled\\lib\\site-packages\\setuptools\\command\\develop.py',
   'PYMODULE'),
  ('numpy.distutils.command.install_clib',
   'd:\\anaconda\\envs\\gdal_enabled\\lib\\site-packages\\numpy\\distutils\\command\\install_clib.py',
   'PYMODULE'),
  ('numpy.distutils.command.bdist_rpm',
   'd:\\anaconda\\envs\\gdal_enabled\\lib\\site-packages\\numpy\\distutils\\command\\bdist_rpm.py',
   'PYMODULE'),
  ('distutils.command.bdist_rpm',
   'd:\\anaconda\\envs\\gdal_enabled\\lib\\distutils\\command\\bdist_rpm.py',
   'PYMODULE'),
  ('setuptools.command.bdist_rpm',
   'd:\\anaconda\\envs\\gdal_enabled\\lib\\site-packages\\setuptools\\command\\bdist_rpm.py',
   'PYMODULE'),
  ('numpy.distutils.command.install',
   'd:\\anaconda\\envs\\gdal_enabled\\lib\\site-packages\\numpy\\distutils\\command\\install.py',
   'PYMODULE'),
  ('setuptools.command.install',
   'd:\\anaconda\\envs\\gdal_enabled\\lib\\site-packages\\setuptools\\command\\install.py',
   'PYMODULE'),
  ('numpy.distutils.command.install_headers',
   'd:\\anaconda\\envs\\gdal_enabled\\lib\\site-packages\\numpy\\distutils\\command\\install_headers.py',
   'PYMODULE'),
  ('distutils.command.install_headers',
   'd:\\anaconda\\envs\\gdal_enabled\\lib\\distutils\\command\\install_headers.py',
   'PYMODULE'),
  ('numpy.distutils.command.install_data',
   'd:\\anaconda\\envs\\gdal_enabled\\lib\\site-packages\\numpy\\distutils\\command\\install_data.py',
   'PYMODULE'),
  ('distutils.command.install_data',
   'd:\\anaconda\\envs\\gdal_enabled\\lib\\distutils\\command\\install_data.py',
   'PYMODULE'),
  ('numpy.distutils.command.sdist',
   'd:\\anaconda\\envs\\gdal_enabled\\lib\\site-packages\\numpy\\distutils\\command\\sdist.py',
   'PYMODULE'),
  ('numpy.distutils.command.build_scripts',
   'd:\\anaconda\\envs\\gdal_enabled\\lib\\site-packages\\numpy\\distutils\\command\\build_scripts.py',
   'PYMODULE'),
  ('numpy.distutils.command.build_clib',
   'd:\\anaconda\\envs\\gdal_enabled\\lib\\site-packages\\numpy\\distutils\\command\\build_clib.py',
   'PYMODULE'),
  ('distutils.command.build_clib',
   'd:\\anaconda\\envs\\gdal_enabled\\lib\\distutils\\command\\build_clib.py',
   'PYMODULE'),
  ('numpy.distutils.command.build_ext',
   'd:\\anaconda\\envs\\gdal_enabled\\lib\\site-packages\\numpy\\distutils\\command\\build_ext.py',
   'PYMODULE'),
  ('numpy.distutils.system_info',
   'd:\\anaconda\\envs\\gdal_enabled\\lib\\site-packages\\numpy\\distutils\\system_info.py',
   'PYMODULE'),
  ('numpy.f2py',
   'd:\\anaconda\\envs\\gdal_enabled\\lib\\site-packages\\numpy\\f2py\\__init__.py',
   'PYMODULE'),
  ('numpy.f2py.diagnose',
   'd:\\anaconda\\envs\\gdal_enabled\\lib\\site-packages\\numpy\\f2py\\diagnose.py',
   'PYMODULE'),
  ('numpy.f2py.f2py_testing',
   'd:\\anaconda\\envs\\gdal_enabled\\lib\\site-packages\\numpy\\f2py\\f2py_testing.py',
   'PYMODULE'),
  ('numpy.testing',
   'd:\\anaconda\\envs\\gdal_enabled\\lib\\site-packages\\numpy\\testing\\__init__.py',
   'PYMODULE'),
  ('numpy.testing._private.nosetester',
   'd:\\anaconda\\envs\\gdal_enabled\\lib\\site-packages\\numpy\\testing\\_private\\nosetester.py',
   'PYMODULE'),
  ('scipy',
   'd:\\anaconda\\envs\\gdal_enabled\\lib\\site-packages\\scipy\\__init__.py',
   'PYMODULE'),
  ('scipy._lib',
   'd:\\anaconda\\envs\\gdal_enabled\\lib\\site-packages\\scipy\\_lib\\__init__.py',
   'PYMODULE'),
  ('scipy.fft',
   'd:\\anaconda\\envs\\gdal_enabled\\lib\\site-packages\\scipy\\fft\\__init__.py',
   'PYMODULE'),
  ('numpy.dual',
   'd:\\anaconda\\envs\\gdal_enabled\\lib\\site-packages\\numpy\\dual.py',
   'PYMODULE'),
  ('numpy.lib',
   'd:\\anaconda\\envs\\gdal_enabled\\lib\\site-packages\\numpy\\lib\\__init__.py',
   'PYMODULE'),
  ('numpy.core',
   'd:\\anaconda\\envs\\gdal_enabled\\lib\\site-packages\\numpy\\core\\__init__.py',
   'PYMODULE'),
  ('numpy.core._dtype',
   'd:\\anaconda\\envs\\gdal_enabled\\lib\\site-packages\\numpy\\core\\_dtype.py',
   'PYMODULE'),
  ('numpy.core._internal',
   'd:\\anaconda\\envs\\gdal_enabled\\lib\\site-packages\\numpy\\core\\_internal.py',
   'PYMODULE'),
  ('numpy.core._dtype_ctypes',
   'd:\\anaconda\\envs\\gdal_enabled\\lib\\site-packages\\numpy\\core\\_dtype_ctypes.py',
   'PYMODULE'),
  ('numpy.core._add_newdocs',
   'd:\\anaconda\\envs\\gdal_enabled\\lib\\site-packages\\numpy\\core\\_add_newdocs.py',
   'PYMODULE'),
  ('numpy.core.einsumfunc',
   'd:\\anaconda\\envs\\gdal_enabled\\lib\\site-packages\\numpy\\core\\einsumfunc.py',
   'PYMODULE'),
  ('numpy.core.getlimits',
   'd:\\anaconda\\envs\\gdal_enabled\\lib\\site-packages\\numpy\\core\\getlimits.py',
   'PYMODULE'),
  ('numpy.core.machar',
   'd:\\anaconda\\envs\\gdal_enabled\\lib\\site-packages\\numpy\\core\\machar.py',
   'PYMODULE'),
  ('numpy.core._ufunc_config',
   'd:\\anaconda\\envs\\gdal_enabled\\lib\\site-packages\\numpy\\core\\_ufunc_config.py',
   'PYMODULE'),
  ('numpy.core.function_base',
   'd:\\anaconda\\envs\\gdal_enabled\\lib\\site-packages\\numpy\\core\\function_base.py',
   'PYMODULE'),
  ('numpy.core.memmap',
   'd:\\anaconda\\envs\\gdal_enabled\\lib\\site-packages\\numpy\\core\\memmap.py',
   'PYMODULE'),
  ('numpy.core.records',
   'd:\\anaconda\\envs\\gdal_enabled\\lib\\site-packages\\numpy\\core\\records.py',
   'PYMODULE'),
  ('numpy.core.defchararray',
   'd:\\anaconda\\envs\\gdal_enabled\\lib\\site-packages\\numpy\\core\\defchararray.py',
   'PYMODULE'),
  ('numpy.core.arrayprint',
   'd:\\anaconda\\envs\\gdal_enabled\\lib\\site-packages\\numpy\\core\\arrayprint.py',
   'PYMODULE'),
  ('_dummy_thread',
   'd:\\anaconda\\envs\\gdal_enabled\\lib\\_dummy_thread.py',
   'PYMODULE'),
  ('numpy.core.shape_base',
   'd:\\anaconda\\envs\\gdal_enabled\\lib\\site-packages\\numpy\\core\\shape_base.py',
   'PYMODULE'),
  ('numpy.core._asarray',
   'd:\\anaconda\\envs\\gdal_enabled\\lib\\site-packages\\numpy\\core\\_asarray.py',
   'PYMODULE'),
  ('numpy.core.fromnumeric',
   'd:\\anaconda\\envs\\gdal_enabled\\lib\\site-packages\\numpy\\core\\fromnumeric.py',
   'PYMODULE'),
  ('numpy.core._methods',
   'd:\\anaconda\\envs\\gdal_enabled\\lib\\site-packages\\numpy\\core\\_methods.py',
   'PYMODULE'),
  ('numpy._globals',
   'd:\\anaconda\\envs\\gdal_enabled\\lib\\site-packages\\numpy\\_globals.py',
   'PYMODULE'),
  ('numpy.core._exceptions',
   'd:\\anaconda\\envs\\gdal_enabled\\lib\\site-packages\\numpy\\core\\_exceptions.py',
   'PYMODULE'),
  ('numpy.core.numeric',
   'd:\\anaconda\\envs\\gdal_enabled\\lib\\site-packages\\numpy\\core\\numeric.py',
   'PYMODULE'),
  ('numpy.core.numerictypes',
   'd:\\anaconda\\envs\\gdal_enabled\\lib\\site-packages\\numpy\\core\\numerictypes.py',
   'PYMODULE'),
  ('numpy.core._type_aliases',
   'd:\\anaconda\\envs\\gdal_enabled\\lib\\site-packages\\numpy\\core\\_type_aliases.py',
   'PYMODULE'),
  ('numpy.core._string_helpers',
   'd:\\anaconda\\envs\\gdal_enabled\\lib\\site-packages\\numpy\\core\\_string_helpers.py',
   'PYMODULE'),
  ('numpy.core.umath',
   'd:\\anaconda\\envs\\gdal_enabled\\lib\\site-packages\\numpy\\core\\umath.py',
   'PYMODULE'),
  ('numpy.core.multiarray',
   'd:\\anaconda\\envs\\gdal_enabled\\lib\\site-packages\\numpy\\core\\multiarray.py',
   'PYMODULE'),
  ('numpy.core.overrides',
   'd:\\anaconda\\envs\\gdal_enabled\\lib\\site-packages\\numpy\\core\\overrides.py',
   'PYMODULE'),
  ('numpy.compat._inspect',
   'd:\\anaconda\\envs\\gdal_enabled\\lib\\site-packages\\numpy\\compat\\_inspect.py',
   'PYMODULE'),
  ('numpy.lib._version',
   'd:\\anaconda\\envs\\gdal_enabled\\lib\\site-packages\\numpy\\lib\\_version.py',
   'PYMODULE'),
  ('numpy.lib.arraypad',
   'd:\\anaconda\\envs\\gdal_enabled\\lib\\site-packages\\numpy\\lib\\arraypad.py',
   'PYMODULE'),
  ('numpy.lib.arrayterator',
   'd:\\anaconda\\envs\\gdal_enabled\\lib\\site-packages\\numpy\\lib\\arrayterator.py',
   'PYMODULE'),
  ('numpy.lib.financial',
   'd:\\anaconda\\envs\\gdal_enabled\\lib\\site-packages\\numpy\\lib\\financial.py',
   'PYMODULE'),
  ('numpy.lib.npyio',
   'd:\\anaconda\\envs\\gdal_enabled\\lib\\site-packages\\numpy\\lib\\npyio.py',
   'PYMODULE'),
  ('numpy.ma.mrecords',
   'd:\\anaconda\\envs\\gdal_enabled\\lib\\site-packages\\numpy\\ma\\mrecords.py',
   'PYMODULE'),
  ('numpy.ma',
   'd:\\anaconda\\envs\\gdal_enabled\\lib\\site-packages\\numpy\\ma\\__init__.py',
   'PYMODULE'),
  ('numpy.ma.extras',
   'd:\\anaconda\\envs\\gdal_enabled\\lib\\site-packages\\numpy\\ma\\extras.py',
   'PYMODULE'),
  ('numpy.ma.core',
   'd:\\anaconda\\envs\\gdal_enabled\\lib\\site-packages\\numpy\\ma\\core.py',
   'PYMODULE'),
  ('numpy.lib._iotools',
   'd:\\anaconda\\envs\\gdal_enabled\\lib\\site-packages\\numpy\\lib\\_iotools.py',
   'PYMODULE'),
  ('numpy.lib._datasource',
   'd:\\anaconda\\envs\\gdal_enabled\\lib\\site-packages\\numpy\\lib\\_datasource.py',
   'PYMODULE'),
  ('numpy.lib.format',
   'd:\\anaconda\\envs\\gdal_enabled\\lib\\site-packages\\numpy\\lib\\format.py',
   'PYMODULE'),
  ('numpy.lib.arraysetops',
   'd:\\anaconda\\envs\\gdal_enabled\\lib\\site-packages\\numpy\\lib\\arraysetops.py',
   'PYMODULE'),
  ('numpy.lib.utils',
   'd:\\anaconda\\envs\\gdal_enabled\\lib\\site-packages\\numpy\\lib\\utils.py',
   'PYMODULE'),
  ('numpy.lib.polynomial',
   'd:\\anaconda\\envs\\gdal_enabled\\lib\\site-packages\\numpy\\lib\\polynomial.py',
   'PYMODULE'),
  ('numpy.lib.histograms',
   'd:\\anaconda\\envs\\gdal_enabled\\lib\\site-packages\\numpy\\lib\\histograms.py',
   'PYMODULE'),
  ('numpy.compat.py3k',
   'd:\\anaconda\\envs\\gdal_enabled\\lib\\site-packages\\numpy\\compat\\py3k.py',
   'PYMODULE'),
  ('pathlib', 'd:\\anaconda\\envs\\gdal_enabled\\lib\\pathlib.py', 'PYMODULE'),
  ('numpy.lib.ufunclike',
   'd:\\anaconda\\envs\\gdal_enabled\\lib\\site-packages\\numpy\\lib\\ufunclike.py',
   'PYMODULE'),
  ('numpy.lib.twodim_base',
   'd:\\anaconda\\envs\\gdal_enabled\\lib\\site-packages\\numpy\\lib\\twodim_base.py',
   'PYMODULE'),
  ('numpy.lib.stride_tricks',
   'd:\\anaconda\\envs\\gdal_enabled\\lib\\site-packages\\numpy\\lib\\stride_tricks.py',
   'PYMODULE'),
  ('numpy.lib.shape_base',
   'd:\\anaconda\\envs\\gdal_enabled\\lib\\site-packages\\numpy\\lib\\shape_base.py',
   'PYMODULE'),
  ('numpy.matrixlib.defmatrix',
   'd:\\anaconda\\envs\\gdal_enabled\\lib\\site-packages\\numpy\\matrixlib\\defmatrix.py',
   'PYMODULE'),
  ('numpy.matrixlib',
   'd:\\anaconda\\envs\\gdal_enabled\\lib\\site-packages\\numpy\\matrixlib\\__init__.py',
   'PYMODULE'),
  ('numpy.lib.nanfunctions',
   'd:\\anaconda\\envs\\gdal_enabled\\lib\\site-packages\\numpy\\lib\\nanfunctions.py',
   'PYMODULE'),
  ('numpy.lib.function_base',
   'd:\\anaconda\\envs\\gdal_enabled\\lib\\site-packages\\numpy\\lib\\function_base.py',
   'PYMODULE'),
  ('numpy.lib.index_tricks',
   'd:\\anaconda\\envs\\gdal_enabled\\lib\\site-packages\\numpy\\lib\\index_tricks.py',
   'PYMODULE'),
  ('numpy.lib.type_check',
   'd:\\anaconda\\envs\\gdal_enabled\\lib\\site-packages\\numpy\\lib\\type_check.py',
   'PYMODULE'),
  ('numpy.lib.mixins',
   'd:\\anaconda\\envs\\gdal_enabled\\lib\\site-packages\\numpy\\lib\\mixins.py',
   'PYMODULE'),
  ('numpy.version',
   'd:\\anaconda\\envs\\gdal_enabled\\lib\\site-packages\\numpy\\version.py',
   'PYMODULE'),
  ('scipy.fft._pocketfft.helper',
   'd:\\anaconda\\envs\\gdal_enabled\\lib\\site-packages\\scipy\\fft\\_pocketfft\\helper.py',
   'PYMODULE'),
  ('scipy.fft._backend',
   'd:\\anaconda\\envs\\gdal_enabled\\lib\\site-packages\\scipy\\fft\\_backend.py',
   'PYMODULE'),
  ('scipy._lib.uarray',
   'd:\\anaconda\\envs\\gdal_enabled\\lib\\site-packages\\scipy\\_lib\\uarray.py',
   'PYMODULE'),
  ('scipy._lib._uarray',
   'd:\\anaconda\\envs\\gdal_enabled\\lib\\site-packages\\scipy\\_lib\\_uarray\\__init__.py',
   'PYMODULE'),
  ('scipy._lib._uarray._backend',
   'd:\\anaconda\\envs\\gdal_enabled\\lib\\site-packages\\scipy\\_lib\\_uarray\\_backend.py',
   'PYMODULE'),
  ('scipy._lib._pep440',
   'd:\\anaconda\\envs\\gdal_enabled\\lib\\site-packages\\scipy\\_lib\\_pep440.py',
   'PYMODULE'),
  ('scipy.fft._helper',
   'd:\\anaconda\\envs\\gdal_enabled\\lib\\site-packages\\scipy\\fft\\_helper.py',
   'PYMODULE'),
  ('scipy.fft._pocketfft',
   'd:\\anaconda\\envs\\gdal_enabled\\lib\\site-packages\\scipy\\fft\\_pocketfft\\__init__.py',
   'PYMODULE'),
  ('scipy.fft._pocketfft.realtransforms',
   'd:\\anaconda\\envs\\gdal_enabled\\lib\\site-packages\\scipy\\fft\\_pocketfft\\realtransforms.py',
   'PYMODULE'),
  ('scipy.fft._pocketfft.basic',
   'd:\\anaconda\\envs\\gdal_enabled\\lib\\site-packages\\scipy\\fft\\_pocketfft\\basic.py',
   'PYMODULE'),
  ('scipy.fft._realtransforms',
   'd:\\anaconda\\envs\\gdal_enabled\\lib\\site-packages\\scipy\\fft\\_realtransforms.py',
   'PYMODULE'),
  ('scipy.fft._basic',
   'd:\\anaconda\\envs\\gdal_enabled\\lib\\site-packages\\scipy\\fft\\_basic.py',
   'PYMODULE'),
  ('scipy._lib._testutils',
   'd:\\anaconda\\envs\\gdal_enabled\\lib\\site-packages\\scipy\\_lib\\_testutils.py',
   'PYMODULE'),
  ('scipy._lib._ccallback',
   'd:\\anaconda\\envs\\gdal_enabled\\lib\\site-packages\\scipy\\_lib\\_ccallback.py',
   'PYMODULE'),
  ('scipy._lib._version',
   'd:\\anaconda\\envs\\gdal_enabled\\lib\\site-packages\\scipy\\_lib\\_version.py',
   'PYMODULE'),
  ('scipy._lib.six',
   'd:\\anaconda\\envs\\gdal_enabled\\lib\\site-packages\\scipy\\_lib\\six.py',
   'PYMODULE'),
  ('scipy.version',
   'd:\\anaconda\\envs\\gdal_enabled\\lib\\site-packages\\scipy\\version.py',
   'PYMODULE'),
  ('scipy.__config__',
   'd:\\anaconda\\envs\\gdal_enabled\\lib\\site-packages\\scipy\\__config__.py',
   'PYMODULE'),
  ('scipy._distributor_init',
   'd:\\anaconda\\envs\\gdal_enabled\\lib\\site-packages\\scipy\\_distributor_init.py',
   'PYMODULE'),
  ('numpy.lib.scimath',
   'd:\\anaconda\\envs\\gdal_enabled\\lib\\site-packages\\numpy\\lib\\scimath.py',
   'PYMODULE'),
  ('numpy.fft',
   'd:\\anaconda\\envs\\gdal_enabled\\lib\\site-packages\\numpy\\fft\\__init__.py',
   'PYMODULE'),
  ('numpy.fft.helper',
   'd:\\anaconda\\envs\\gdal_enabled\\lib\\site-packages\\numpy\\fft\\helper.py',
   'PYMODULE'),
  ('numpy.fft._pocketfft',
   'd:\\anaconda\\envs\\gdal_enabled\\lib\\site-packages\\numpy\\fft\\_pocketfft.py',
   'PYMODULE'),
  ('numpy.random',
   'd:\\anaconda\\envs\\gdal_enabled\\lib\\site-packages\\numpy\\random\\__init__.py',
   'PYMODULE'),
  ('numpy.random._pickle',
   'd:\\anaconda\\envs\\gdal_enabled\\lib\\site-packages\\numpy\\random\\_pickle.py',
   'PYMODULE'),
  ('scipy._lib.deprecation',
   'd:\\anaconda\\envs\\gdal_enabled\\lib\\site-packages\\scipy\\_lib\\deprecation.py',
   'PYMODULE'),
  ('numpy.testing._private.noseclasses',
   'd:\\anaconda\\envs\\gdal_enabled\\lib\\site-packages\\numpy\\testing\\_private\\noseclasses.py',
   'PYMODULE'),
  ('numpy.testing._private.decorators',
   'd:\\anaconda\\envs\\gdal_enabled\\lib\\site-packages\\numpy\\testing\\_private\\decorators.py',
   'PYMODULE'),
  ('numpy.testing._private.parameterized',
   'd:\\anaconda\\envs\\gdal_enabled\\lib\\site-packages\\numpy\\testing\\_private\\parameterized.py',
   'PYMODULE'),
  ('numpy.testing._private',
   'd:\\anaconda\\envs\\gdal_enabled\\lib\\site-packages\\numpy\\testing\\_private\\__init__.py',
   'PYMODULE'),
  ('numpy.testing._private.utils',
   'd:\\anaconda\\envs\\gdal_enabled\\lib\\site-packages\\numpy\\testing\\_private\\utils.py',
   'PYMODULE'),
  ('numpy.__config__',
   'd:\\anaconda\\envs\\gdal_enabled\\lib\\site-packages\\numpy\\__config__.py',
   'PYMODULE'),
  ('numpy.f2py.f2py2e',
   'd:\\anaconda\\envs\\gdal_enabled\\lib\\site-packages\\numpy\\f2py\\f2py2e.py',
   'PYMODULE'),
  ('numpy.distutils.command.build_src',
   'd:\\anaconda\\envs\\gdal_enabled\\lib\\site-packages\\numpy\\distutils\\command\\build_src.py',
   'PYMODULE'),
  ('numpy.distutils.conv_template',
   'd:\\anaconda\\envs\\gdal_enabled\\lib\\site-packages\\numpy\\distutils\\conv_template.py',
   'PYMODULE'),
  ('numpy.distutils.from_template',
   'd:\\anaconda\\envs\\gdal_enabled\\lib\\site-packages\\numpy\\distutils\\from_template.py',
   'PYMODULE'),
  ('numpy.f2py.auxfuncs',
   'd:\\anaconda\\envs\\gdal_enabled\\lib\\site-packages\\numpy\\f2py\\auxfuncs.py',
   'PYMODULE'),
  ('numpy.f2py.f90mod_rules',
   'd:\\anaconda\\envs\\gdal_enabled\\lib\\site-packages\\numpy\\f2py\\f90mod_rules.py',
   'PYMODULE'),
  ('numpy.f2py.rules',
   'd:\\anaconda\\envs\\gdal_enabled\\lib\\site-packages\\numpy\\f2py\\rules.py',
   'PYMODULE'),
  ('numpy.f2py.use_rules',
   'd:\\anaconda\\envs\\gdal_enabled\\lib\\site-packages\\numpy\\f2py\\use_rules.py',
   'PYMODULE'),
  ('numpy.f2py.common_rules',
   'd:\\anaconda\\envs\\gdal_enabled\\lib\\site-packages\\numpy\\f2py\\common_rules.py',
   'PYMODULE'),
  ('numpy.f2py.func2subr',
   'd:\\anaconda\\envs\\gdal_enabled\\lib\\site-packages\\numpy\\f2py\\func2subr.py',
   'PYMODULE'),
  ('numpy.f2py.crackfortran',
   'd:\\anaconda\\envs\\gdal_enabled\\lib\\site-packages\\numpy\\f2py\\crackfortran.py',
   'PYMODULE'),
  ('fileinput',
   'd:\\anaconda\\envs\\gdal_enabled\\lib\\fileinput.py',
   'PYMODULE'),
  ('numpy.f2py.cb_rules',
   'd:\\anaconda\\envs\\gdal_enabled\\lib\\site-packages\\numpy\\f2py\\cb_rules.py',
   'PYMODULE'),
  ('numpy.f2py.capi_maps',
   'd:\\anaconda\\envs\\gdal_enabled\\lib\\site-packages\\numpy\\f2py\\capi_maps.py',
   'PYMODULE'),
  ('numpy.f2py.cfuncs',
   'd:\\anaconda\\envs\\gdal_enabled\\lib\\site-packages\\numpy\\f2py\\cfuncs.py',
   'PYMODULE'),
  ('numpy.f2py.__version__',
   'd:\\anaconda\\envs\\gdal_enabled\\lib\\site-packages\\numpy\\f2py\\__version__.py',
   'PYMODULE'),
  ('numpy.distutils.command.build_py',
   'd:\\anaconda\\envs\\gdal_enabled\\lib\\site-packages\\numpy\\distutils\\command\\build_py.py',
   'PYMODULE'),
  ('distutils.command.build_py',
   'd:\\anaconda\\envs\\gdal_enabled\\lib\\distutils\\command\\build_py.py',
   'PYMODULE'),
  ('numpy.distutils.command.build',
   'd:\\anaconda\\envs\\gdal_enabled\\lib\\site-packages\\numpy\\distutils\\command\\build.py',
   'PYMODULE'),
  ('distutils.command.build',
   'd:\\anaconda\\envs\\gdal_enabled\\lib\\distutils\\command\\build.py',
   'PYMODULE'),
  ('numpy.distutils.command.config',
   'd:\\anaconda\\envs\\gdal_enabled\\lib\\site-packages\\numpy\\distutils\\command\\config.py',
   'PYMODULE'),
  ('numpy.distutils.command.autodist',
   'd:\\anaconda\\envs\\gdal_enabled\\lib\\site-packages\\numpy\\distutils\\command\\autodist.py',
   'PYMODULE'),
  ('numpy.distutils.mingw32ccompiler',
   'd:\\anaconda\\envs\\gdal_enabled\\lib\\site-packages\\numpy\\distutils\\mingw32ccompiler.py',
   'PYMODULE'),
  ('distutils.msvccompiler',
   'd:\\anaconda\\envs\\gdal_enabled\\lib\\distutils\\msvccompiler.py',
   'PYMODULE'),
  ('distutils.unixccompiler',
   'd:\\anaconda\\envs\\gdal_enabled\\lib\\distutils\\unixccompiler.py',
   'PYMODULE'),
  ('distutils.cygwinccompiler',
   'd:\\anaconda\\envs\\gdal_enabled\\lib\\distutils\\cygwinccompiler.py',
   'PYMODULE'),
  ('distutils.command.config',
   'd:\\anaconda\\envs\\gdal_enabled\\lib\\distutils\\command\\config.py',
   'PYMODULE'),
  ('distutils.core',
   'd:\\anaconda\\envs\\gdal_enabled\\lib\\distutils\\core.py',
   'PYMODULE'),
  ('distutils.config',
   'd:\\anaconda\\envs\\gdal_enabled\\lib\\distutils\\config.py',
   'PYMODULE'),
  ('cgi', 'd:\\anaconda\\envs\\gdal_enabled\\lib\\cgi.py', 'PYMODULE'),
  ('distutils.dist',
   'd:\\anaconda\\envs\\gdal_enabled\\lib\\distutils\\dist.py',
   'PYMODULE'),
  ('distutils.versionpredicate',
   'd:\\anaconda\\envs\\gdal_enabled\\lib\\distutils\\versionpredicate.py',
   'PYMODULE'),
  ('numpy.distutils.core',
   'd:\\anaconda\\envs\\gdal_enabled\\lib\\site-packages\\numpy\\distutils\\core.py',
   'PYMODULE'),
  ('numpy.distutils.numpy_distribution',
   'd:\\anaconda\\envs\\gdal_enabled\\lib\\site-packages\\numpy\\distutils\\numpy_distribution.py',
   'PYMODULE'),
  ('numpy.distutils.extension',
   'd:\\anaconda\\envs\\gdal_enabled\\lib\\site-packages\\numpy\\distutils\\extension.py',
   'PYMODULE'),
  ('numpy.distutils.fcompiler.environment',
   'd:\\anaconda\\envs\\gdal_enabled\\lib\\site-packages\\numpy\\distutils\\fcompiler\\environment.py',
   'PYMODULE'),
  ('numpy.distutils.exec_command',
   'd:\\anaconda\\envs\\gdal_enabled\\lib\\site-packages\\numpy\\distutils\\exec_command.py',
   'PYMODULE'),
  ('numpy.distutils.misc_util',
   'd:\\anaconda\\envs\\gdal_enabled\\lib\\site-packages\\numpy\\distutils\\misc_util.py',
   'PYMODULE'),
  ('curses',
   'd:\\anaconda\\envs\\gdal_enabled\\lib\\curses\\__init__.py',
   'PYMODULE'),
  ('curses.has_key',
   'd:\\anaconda\\envs\\gdal_enabled\\lib\\curses\\has_key.py',
   'PYMODULE'),
  ('dummy_threading',
   'd:\\anaconda\\envs\\gdal_enabled\\lib\\dummy_threading.py',
   'PYMODULE'),
  ('numpy.compat',
   'd:\\anaconda\\envs\\gdal_enabled\\lib\\site-packages\\numpy\\compat\\__init__.py',
   'PYMODULE'),
  ('numpy.distutils.__config__',
   'd:\\anaconda\\envs\\gdal_enabled\\lib\\site-packages\\numpy\\distutils\\__config__.py',
   'PYMODULE'),
  ('numpy.distutils.npy_pkg_config',
   'd:\\anaconda\\envs\\gdal_enabled\\lib\\site-packages\\numpy\\distutils\\npy_pkg_config.py',
   'PYMODULE'),
  ('numpy.distutils.unixccompiler',
   'd:\\anaconda\\envs\\gdal_enabled\\lib\\site-packages\\numpy\\distutils\\unixccompiler.py',
   'PYMODULE'),
  ('numpy.distutils.ccompiler',
   'd:\\anaconda\\envs\\gdal_enabled\\lib\\site-packages\\numpy\\distutils\\ccompiler.py',
   'PYMODULE'),
  ('numpy.distutils._shell_utils',
   'd:\\anaconda\\envs\\gdal_enabled\\lib\\site-packages\\numpy\\distutils\\_shell_utils.py',
   'PYMODULE'),
  ('pipes', 'd:\\anaconda\\envs\\gdal_enabled\\lib\\pipes.py', 'PYMODULE'),
  ('numpy.distutils.lib2def',
   'd:\\anaconda\\envs\\gdal_enabled\\lib\\site-packages\\numpy\\distutils\\lib2def.py',
   'PYMODULE'),
  ('numpy.distutils.log',
   'd:\\anaconda\\envs\\gdal_enabled\\lib\\site-packages\\numpy\\distutils\\log.py',
   'PYMODULE'),
  ('numpy.linalg.linalg',
   'd:\\anaconda\\envs\\gdal_enabled\\lib\\site-packages\\numpy\\linalg\\linalg.py',
   'PYMODULE'),
  ('matplotlib.backends',
   'd:\\anaconda\\envs\\gdal_enabled\\lib\\site-packages\\matplotlib\\backends\\__init__.py',
   'PYMODULE'),
  ('matplotlib.backends.backend_template',
   'd:\\anaconda\\envs\\gdal_enabled\\lib\\site-packages\\matplotlib\\backends\\backend_template.py',
   'PYMODULE'),
  ('matplotlib.backends.backend_svg',
   'd:\\anaconda\\envs\\gdal_enabled\\lib\\site-packages\\matplotlib\\backends\\backend_svg.py',
   'PYMODULE'),
  ('matplotlib.mathtext',
   'd:\\anaconda\\envs\\gdal_enabled\\lib\\site-packages\\matplotlib\\mathtext.py',
   'PYMODULE'),
  ('matplotlib._mathtext_data',
   'd:\\anaconda\\envs\\gdal_enabled\\lib\\site-packages\\matplotlib\\_mathtext_data.py',
   'PYMODULE'),
  ('matplotlib.afm',
   'd:\\anaconda\\envs\\gdal_enabled\\lib\\site-packages\\matplotlib\\afm.py',
   'PYMODULE'),
  ('pyparsing',
   'd:\\anaconda\\envs\\gdal_enabled\\lib\\site-packages\\pyparsing.py',
   'PYMODULE'),
  ('matplotlib.font_manager',
   'd:\\anaconda\\envs\\gdal_enabled\\lib\\site-packages\\matplotlib\\font_manager.py',
   'PYMODULE'),
  ('matplotlib.fontconfig_pattern',
   'd:\\anaconda\\envs\\gdal_enabled\\lib\\site-packages\\matplotlib\\fontconfig_pattern.py',
   'PYMODULE'),
  ('matplotlib.backends.backend_mixed',
   'd:\\anaconda\\envs\\gdal_enabled\\lib\\site-packages\\matplotlib\\backends\\backend_mixed.py',
   'PYMODULE'),
  ('matplotlib.tight_bbox',
   'd:\\anaconda\\envs\\gdal_enabled\\lib\\site-packages\\matplotlib\\tight_bbox.py',
   'PYMODULE'),
  ('matplotlib.backends.backend_ps',
   'd:\\anaconda\\envs\\gdal_enabled\\lib\\site-packages\\matplotlib\\backends\\backend_ps.py',
   'PYMODULE'),
  ('matplotlib.texmanager',
   'd:\\anaconda\\envs\\gdal_enabled\\lib\\site-packages\\matplotlib\\texmanager.py',
   'PYMODULE'),
  ('matplotlib.dviread',
   'd:\\anaconda\\envs\\gdal_enabled\\lib\\site-packages\\matplotlib\\dviread.py',
   'PYMODULE'),
  ('matplotlib._text_layout',
   'd:\\anaconda\\envs\\gdal_enabled\\lib\\site-packages\\matplotlib\\_text_layout.py',
   'PYMODULE'),
  ('matplotlib.backends.backend_pgf',
   'd:\\anaconda\\envs\\gdal_enabled\\lib\\site-packages\\matplotlib\\backends\\backend_pgf.py',
   'PYMODULE'),
  ('matplotlib.backends.backend_pdf',
   'd:\\anaconda\\envs\\gdal_enabled\\lib\\site-packages\\matplotlib\\backends\\backend_pdf.py',
   'PYMODULE'),
  ('matplotlib.dates',
   'd:\\anaconda\\envs\\gdal_enabled\\lib\\site-packages\\matplotlib\\dates.py',
   'PYMODULE'),
  ('matplotlib.units',
   'd:\\anaconda\\envs\\gdal_enabled\\lib\\site-packages\\matplotlib\\units.py',
   'PYMODULE'),
  ('dateutil.tz',
   'd:\\anaconda\\envs\\gdal_enabled\\lib\\site-packages\\dateutil\\tz\\__init__.py',
   'PYMODULE'),
  ('dateutil.tz.tz',
   'd:\\anaconda\\envs\\gdal_enabled\\lib\\site-packages\\dateutil\\tz\\tz.py',
   'PYMODULE'),
  ('dateutil.zoneinfo',
   'd:\\anaconda\\envs\\gdal_enabled\\lib\\site-packages\\dateutil\\zoneinfo\\__init__.py',
   'PYMODULE'),
  ('dateutil.parser._parser',
   'd:\\anaconda\\envs\\gdal_enabled\\lib\\site-packages\\dateutil\\parser\\_parser.py',
   'PYMODULE'),
  ('dateutil.tz.win',
   'd:\\anaconda\\envs\\gdal_enabled\\lib\\site-packages\\dateutil\\tz\\win.py',
   'PYMODULE'),
  ('dateutil.tz._factories',
   'd:\\anaconda\\envs\\gdal_enabled\\lib\\site-packages\\dateutil\\tz\\_factories.py',
   'PYMODULE'),
  ('dateutil.tz._common',
   'd:\\anaconda\\envs\\gdal_enabled\\lib\\site-packages\\dateutil\\tz\\_common.py',
   'PYMODULE'),
  ('six',
   'd:\\anaconda\\envs\\gdal_enabled\\lib\\site-packages\\six.py',
   'PYMODULE'),
  ('dateutil',
   'd:\\anaconda\\envs\\gdal_enabled\\lib\\site-packages\\dateutil\\__init__.py',
   'PYMODULE'),
  ('dateutil.easter',
   'd:\\anaconda\\envs\\gdal_enabled\\lib\\site-packages\\dateutil\\easter.py',
   'PYMODULE'),
  ('dateutil._version',
   'd:\\anaconda\\envs\\gdal_enabled\\lib\\site-packages\\dateutil\\_version.py',
   'PYMODULE'),
  ('dateutil.parser',
   'd:\\anaconda\\envs\\gdal_enabled\\lib\\site-packages\\dateutil\\parser\\__init__.py',
   'PYMODULE'),
  ('dateutil.parser.isoparser',
   'd:\\anaconda\\envs\\gdal_enabled\\lib\\site-packages\\dateutil\\parser\\isoparser.py',
   'PYMODULE'),
  ('dateutil.relativedelta',
   'd:\\anaconda\\envs\\gdal_enabled\\lib\\site-packages\\dateutil\\relativedelta.py',
   'PYMODULE'),
  ('dateutil._common',
   'd:\\anaconda\\envs\\gdal_enabled\\lib\\site-packages\\dateutil\\_common.py',
   'PYMODULE'),
  ('dateutil.rrule',
   'd:\\anaconda\\envs\\gdal_enabled\\lib\\site-packages\\dateutil\\rrule.py',
   'PYMODULE'),
  ('fractions',
   'd:\\anaconda\\envs\\gdal_enabled\\lib\\fractions.py',
   'PYMODULE'),
  ('matplotlib.type1font',
   'd:\\anaconda\\envs\\gdal_enabled\\lib\\site-packages\\matplotlib\\type1font.py',
   'PYMODULE'),
  ('matplotlib.backends._backend_pdf_ps',
   'd:\\anaconda\\envs\\gdal_enabled\\lib\\site-packages\\matplotlib\\backends\\_backend_pdf_ps.py',
   'PYMODULE'),
  ('matplotlib.backends.backend_agg',
   'd:\\anaconda\\envs\\gdal_enabled\\lib\\site-packages\\matplotlib\\backends\\backend_agg.py',
   'PYMODULE'),
  ('PIL.PngImagePlugin',
   'd:\\anaconda\\envs\\gdal_enabled\\lib\\site-packages\\PIL\\PngImagePlugin.py',
   'PYMODULE'),
  ('PIL._binary',
   'd:\\anaconda\\envs\\gdal_enabled\\lib\\site-packages\\PIL\\_binary.py',
   'PYMODULE'),
  ('PIL.ImageSequence',
   'd:\\anaconda\\envs\\gdal_enabled\\lib\\site-packages\\PIL\\ImageSequence.py',
   'PYMODULE'),
  ('PIL.ImagePalette',
   'd:\\anaconda\\envs\\gdal_enabled\\lib\\site-packages\\PIL\\ImagePalette.py',
   'PYMODULE'),
  ('PIL.PaletteFile',
   'd:\\anaconda\\envs\\gdal_enabled\\lib\\site-packages\\PIL\\PaletteFile.py',
   'PYMODULE'),
  ('PIL.ImageColor',
   'd:\\anaconda\\envs\\gdal_enabled\\lib\\site-packages\\PIL\\ImageColor.py',
   'PYMODULE'),
  ('colorsys',
   'd:\\anaconda\\envs\\gdal_enabled\\lib\\colorsys.py',
   'PYMODULE'),
  ('PIL.GimpPaletteFile',
   'd:\\anaconda\\envs\\gdal_enabled\\lib\\site-packages\\PIL\\GimpPaletteFile.py',
   'PYMODULE'),
  ('PIL.GimpGradientFile',
   'd:\\anaconda\\envs\\gdal_enabled\\lib\\site-packages\\PIL\\GimpGradientFile.py',
   'PYMODULE'),
  ('PIL.ImageFile',
   'd:\\anaconda\\envs\\gdal_enabled\\lib\\site-packages\\PIL\\ImageFile.py',
   'PYMODULE'),
  ('PIL._util',
   'd:\\anaconda\\envs\\gdal_enabled\\lib\\site-packages\\PIL\\_util.py',
   'PYMODULE'),
  ('PIL.ImageChops',
   'd:\\anaconda\\envs\\gdal_enabled\\lib\\site-packages\\PIL\\ImageChops.py',
   'PYMODULE'),
  ('PIL.Image',
   'd:\\anaconda\\envs\\gdal_enabled\\lib\\site-packages\\PIL\\Image.py',
   'PYMODULE'),
  ('PIL.FliImagePlugin',
   'd:\\anaconda\\envs\\gdal_enabled\\lib\\site-packages\\PIL\\FliImagePlugin.py',
   'PYMODULE'),
  ('PIL.FitsStubImagePlugin',
   'd:\\anaconda\\envs\\gdal_enabled\\lib\\site-packages\\PIL\\FitsStubImagePlugin.py',
   'PYMODULE'),
  ('PIL.PdfImagePlugin',
   'd:\\anaconda\\envs\\gdal_enabled\\lib\\site-packages\\PIL\\PdfImagePlugin.py',
   'PYMODULE'),
  ('PIL.PdfParser',
   'd:\\anaconda\\envs\\gdal_enabled\\lib\\site-packages\\PIL\\PdfParser.py',
   'PYMODULE'),
  ('PIL.MpegImagePlugin',
   'd:\\anaconda\\envs\\gdal_enabled\\lib\\site-packages\\PIL\\MpegImagePlugin.py',
   'PYMODULE'),
  ('PIL.Jpeg2KImagePlugin',
   'd:\\anaconda\\envs\\gdal_enabled\\lib\\site-packages\\PIL\\Jpeg2KImagePlugin.py',
   'PYMODULE'),
  ('PIL.WebPImagePlugin',
   'd:\\anaconda\\envs\\gdal_enabled\\lib\\site-packages\\PIL\\WebPImagePlugin.py',
   'PYMODULE'),
  ('PIL.BufrStubImagePlugin',
   'd:\\anaconda\\envs\\gdal_enabled\\lib\\site-packages\\PIL\\BufrStubImagePlugin.py',
   'PYMODULE'),
  ('PIL.MpoImagePlugin',
   'd:\\anaconda\\envs\\gdal_enabled\\lib\\site-packages\\PIL\\MpoImagePlugin.py',
   'PYMODULE'),
  ('PIL.ImtImagePlugin',
   'd:\\anaconda\\envs\\gdal_enabled\\lib\\site-packages\\PIL\\ImtImagePlugin.py',
   'PYMODULE'),
  ('PIL.PcxImagePlugin',
   'd:\\anaconda\\envs\\gdal_enabled\\lib\\site-packages\\PIL\\PcxImagePlugin.py',
   'PYMODULE'),
  ('PIL.XbmImagePlugin',
   'd:\\anaconda\\envs\\gdal_enabled\\lib\\site-packages\\PIL\\XbmImagePlugin.py',
   'PYMODULE'),
  ('PIL.CurImagePlugin',
   'd:\\anaconda\\envs\\gdal_enabled\\lib\\site-packages\\PIL\\CurImagePlugin.py',
   'PYMODULE'),
  ('PIL.SpiderImagePlugin',
   'd:\\anaconda\\envs\\gdal_enabled\\lib\\site-packages\\PIL\\SpiderImagePlugin.py',
   'PYMODULE'),
  ('PIL.ImageTk',
   'd:\\anaconda\\envs\\gdal_enabled\\lib\\site-packages\\PIL\\ImageTk.py',
   'PYMODULE'),
  ('PIL.SgiImagePlugin',
   'd:\\anaconda\\envs\\gdal_enabled\\lib\\site-packages\\PIL\\SgiImagePlugin.py',
   'PYMODULE'),
  ('PIL.PalmImagePlugin',
   'd:\\anaconda\\envs\\gdal_enabled\\lib\\site-packages\\PIL\\PalmImagePlugin.py',
   'PYMODULE'),
  ('PIL.MspImagePlugin',
   'd:\\anaconda\\envs\\gdal_enabled\\lib\\site-packages\\PIL\\MspImagePlugin.py',
   'PYMODULE'),
  ('PIL.FpxImagePlugin',
   'd:\\anaconda\\envs\\gdal_enabled\\lib\\site-packages\\PIL\\FpxImagePlugin.py',
   'PYMODULE'),
  ('olefile',
   'd:\\anaconda\\envs\\gdal_enabled\\lib\\site-packages\\olefile\\__init__.py',
   'PYMODULE'),
  ('olefile.olefile',
   'd:\\anaconda\\envs\\gdal_enabled\\lib\\site-packages\\olefile\\olefile.py',
   'PYMODULE'),
  ('PIL.IcoImagePlugin',
   'd:\\anaconda\\envs\\gdal_enabled\\lib\\site-packages\\PIL\\IcoImagePlugin.py',
   'PYMODULE'),
  ('PIL.IcnsImagePlugin',
   'd:\\anaconda\\envs\\gdal_enabled\\lib\\site-packages\\PIL\\IcnsImagePlugin.py',
   'PYMODULE'),
  ('PIL.DdsImagePlugin',
   'd:\\anaconda\\envs\\gdal_enabled\\lib\\site-packages\\PIL\\DdsImagePlugin.py',
   'PYMODULE'),
  ('PIL.XpmImagePlugin',
   'd:\\anaconda\\envs\\gdal_enabled\\lib\\site-packages\\PIL\\XpmImagePlugin.py',
   'PYMODULE'),
  ('PIL.GbrImagePlugin',
   'd:\\anaconda\\envs\\gdal_enabled\\lib\\site-packages\\PIL\\GbrImagePlugin.py',
   'PYMODULE'),
  ('PIL.SunImagePlugin',
   'd:\\anaconda\\envs\\gdal_enabled\\lib\\site-packages\\PIL\\SunImagePlugin.py',
   'PYMODULE'),
  ('PIL.McIdasImagePlugin',
   'd:\\anaconda\\envs\\gdal_enabled\\lib\\site-packages\\PIL\\McIdasImagePlugin.py',
   'PYMODULE'),
  ('PIL.EpsImagePlugin',
   'd:\\anaconda\\envs\\gdal_enabled\\lib\\site-packages\\PIL\\EpsImagePlugin.py',
   'PYMODULE'),
  ('PIL.TgaImagePlugin',
   'd:\\anaconda\\envs\\gdal_enabled\\lib\\site-packages\\PIL\\TgaImagePlugin.py',
   'PYMODULE'),
  ('PIL.XVThumbImagePlugin',
   'd:\\anaconda\\envs\\gdal_enabled\\lib\\site-packages\\PIL\\XVThumbImagePlugin.py',
   'PYMODULE'),
  ('PIL.MicImagePlugin',
   'd:\\anaconda\\envs\\gdal_enabled\\lib\\site-packages\\PIL\\MicImagePlugin.py',
   'PYMODULE'),
  ('PIL.FtexImagePlugin',
   'd:\\anaconda\\envs\\gdal_enabled\\lib\\site-packages\\PIL\\FtexImagePlugin.py',
   'PYMODULE'),
  ('PIL.IptcImagePlugin',
   'd:\\anaconda\\envs\\gdal_enabled\\lib\\site-packages\\PIL\\IptcImagePlugin.py',
   'PYMODULE'),
  ('PIL.GribStubImagePlugin',
   'd:\\anaconda\\envs\\gdal_enabled\\lib\\site-packages\\PIL\\GribStubImagePlugin.py',
   'PYMODULE'),
  ('PIL.PixarImagePlugin',
   'd:\\anaconda\\envs\\gdal_enabled\\lib\\site-packages\\PIL\\PixarImagePlugin.py',
   'PYMODULE'),
  ('PIL.DcxImagePlugin',
   'd:\\anaconda\\envs\\gdal_enabled\\lib\\site-packages\\PIL\\DcxImagePlugin.py',
   'PYMODULE'),
  ('PIL.ImImagePlugin',
   'd:\\anaconda\\envs\\gdal_enabled\\lib\\site-packages\\PIL\\ImImagePlugin.py',
   'PYMODULE'),
  ('PIL.WmfImagePlugin',
   'd:\\anaconda\\envs\\gdal_enabled\\lib\\site-packages\\PIL\\WmfImagePlugin.py',
   'PYMODULE'),
  ('PIL.PcdImagePlugin',
   'd:\\anaconda\\envs\\gdal_enabled\\lib\\site-packages\\PIL\\PcdImagePlugin.py',
   'PYMODULE'),
  ('PIL.BlpImagePlugin',
   'd:\\anaconda\\envs\\gdal_enabled\\lib\\site-packages\\PIL\\BlpImagePlugin.py',
   'PYMODULE'),
  ('PIL.Hdf5StubImagePlugin',
   'd:\\anaconda\\envs\\gdal_enabled\\lib\\site-packages\\PIL\\Hdf5StubImagePlugin.py',
   'PYMODULE'),
  ('PIL.PsdImagePlugin',
   'd:\\anaconda\\envs\\gdal_enabled\\lib\\site-packages\\PIL\\PsdImagePlugin.py',
   'PYMODULE'),
  ('PIL.TiffImagePlugin',
   'd:\\anaconda\\envs\\gdal_enabled\\lib\\site-packages\\PIL\\TiffImagePlugin.py',
   'PYMODULE'),
  ('PIL.ImageShow',
   'd:\\anaconda\\envs\\gdal_enabled\\lib\\site-packages\\PIL\\ImageShow.py',
   'PYMODULE'),
  ('PIL.ImageQt',
   'd:\\anaconda\\envs\\gdal_enabled\\lib\\site-packages\\PIL\\ImageQt.py',
   'PYMODULE'),
  ('PIL.ImageFilter',
   'd:\\anaconda\\envs\\gdal_enabled\\lib\\site-packages\\PIL\\ImageFilter.py',
   'PYMODULE'),
  ('PIL.PyAccess',
   'd:\\anaconda\\envs\\gdal_enabled\\lib\\site-packages\\PIL\\PyAccess.py',
   'PYMODULE'),
  ('PIL.PpmImagePlugin',
   'd:\\anaconda\\envs\\gdal_enabled\\lib\\site-packages\\PIL\\PpmImagePlugin.py',
   'PYMODULE'),
  ('PIL.JpegImagePlugin',
   'd:\\anaconda\\envs\\gdal_enabled\\lib\\site-packages\\PIL\\JpegImagePlugin.py',
   'PYMODULE'),
  ('PIL.JpegPresets',
   'd:\\anaconda\\envs\\gdal_enabled\\lib\\site-packages\\PIL\\JpegPresets.py',
   'PYMODULE'),
  ('PIL.GifImagePlugin',
   'd:\\anaconda\\envs\\gdal_enabled\\lib\\site-packages\\PIL\\GifImagePlugin.py',
   'PYMODULE'),
  ('PIL.BmpImagePlugin',
   'd:\\anaconda\\envs\\gdal_enabled\\lib\\site-packages\\PIL\\BmpImagePlugin.py',
   'PYMODULE'),
  ('PIL.TiffTags',
   'd:\\anaconda\\envs\\gdal_enabled\\lib\\site-packages\\PIL\\TiffTags.py',
   'PYMODULE'),
  ('PIL.ImageMode',
   'd:\\anaconda\\envs\\gdal_enabled\\lib\\site-packages\\PIL\\ImageMode.py',
   'PYMODULE'),
  ('PIL',
   'd:\\anaconda\\envs\\gdal_enabled\\lib\\site-packages\\PIL\\__init__.py',
   'PYMODULE'),
  ('PIL._version',
   'd:\\anaconda\\envs\\gdal_enabled\\lib\\site-packages\\PIL\\_version.py',
   'PYMODULE'),
  ('matplotlib.backends.backend_tkagg',
   'd:\\anaconda\\envs\\gdal_enabled\\lib\\site-packages\\matplotlib\\backends\\backend_tkagg.py',
   'PYMODULE'),
  ('matplotlib.backends._backend_tk',
   'd:\\anaconda\\envs\\gdal_enabled\\lib\\site-packages\\matplotlib\\backends\\_backend_tk.py',
   'PYMODULE'),
  ('matplotlib.backend_managers',
   'd:\\anaconda\\envs\\gdal_enabled\\lib\\site-packages\\matplotlib\\backend_managers.py',
   'PYMODULE'),
  ('matplotlib.backend_tools',
   'd:\\anaconda\\envs\\gdal_enabled\\lib\\site-packages\\matplotlib\\backend_tools.py',
   'PYMODULE'),
  ('tkinter.messagebox',
   'd:\\anaconda\\envs\\gdal_enabled\\lib\\tkinter\\messagebox.py',
   'PYMODULE'),
  ('tkinter.commondialog',
   'd:\\anaconda\\envs\\gdal_enabled\\lib\\tkinter\\commondialog.py',
   'PYMODULE'),
  ('tkinter.simpledialog',
   'd:\\anaconda\\envs\\gdal_enabled\\lib\\tkinter\\simpledialog.py',
   'PYMODULE'),
  ('matplotlib.backends.backend_qt5agg',
   'd:\\anaconda\\envs\\gdal_enabled\\lib\\site-packages\\matplotlib\\backends\\backend_qt5agg.py',
   'PYMODULE'),
  ('matplotlib.backends.qt_compat',
   'd:\\anaconda\\envs\\gdal_enabled\\lib\\site-packages\\matplotlib\\backends\\qt_compat.py',
   'PYMODULE'),
  ('sip', '-', 'PYMODULE'),
  ('PyQt5',
   'd:\\anaconda\\envs\\gdal_enabled\\lib\\site-packages\\PyQt5\\__init__.py',
   'PYMODULE'),
  ('matplotlib.backends.backend_qt5',
   'd:\\anaconda\\envs\\gdal_enabled\\lib\\site-packages\\matplotlib\\backends\\backend_qt5.py',
   'PYMODULE'),
  ('matplotlib.backends.qt_editor.formsubplottool',
   'd:\\anaconda\\envs\\gdal_enabled\\lib\\site-packages\\matplotlib\\backends\\qt_editor\\formsubplottool.py',
   'PYMODULE'),
  ('matplotlib.backends.qt_editor',
   'd:\\anaconda\\envs\\gdal_enabled\\lib\\site-packages\\matplotlib\\backends\\qt_editor\\__init__.py',
   'PYMODULE'),
  ('matplotlib.backends.qt_editor._formlayout',
   'd:\\anaconda\\envs\\gdal_enabled\\lib\\site-packages\\matplotlib\\backends\\qt_editor\\_formlayout.py',
   'PYMODULE'),
  ('matplotlib.backends.qt_editor.figureoptions',
   'd:\\anaconda\\envs\\gdal_enabled\\lib\\site-packages\\matplotlib\\backends\\qt_editor\\figureoptions.py',
   'PYMODULE'),
  ('matplotlib.markers',
   'd:\\anaconda\\envs\\gdal_enabled\\lib\\site-packages\\matplotlib\\markers.py',
   'PYMODULE'),
  ('matplotlib.backends.backend_qt4agg',
   'd:\\anaconda\\envs\\gdal_enabled\\lib\\site-packages\\matplotlib\\backends\\backend_qt4agg.py',
   'PYMODULE'),
  ('matplotlib.backends.backend_webagg',
   'd:\\anaconda\\envs\\gdal_enabled\\lib\\site-packages\\matplotlib\\backends\\backend_webagg.py',
   'PYMODULE'),
  ('tornado.template',
   'd:\\anaconda\\envs\\gdal_enabled\\lib\\site-packages\\tornado\\template.py',
   'PYMODULE'),
  ('tornado.util',
   'd:\\anaconda\\envs\\gdal_enabled\\lib\\site-packages\\tornado\\util.py',
   'PYMODULE'),
  ('tornado.log',
   'd:\\anaconda\\envs\\gdal_enabled\\lib\\site-packages\\tornado\\log.py',
   'PYMODULE'),
  ('tornado.options',
   'd:\\anaconda\\envs\\gdal_enabled\\lib\\site-packages\\tornado\\options.py',
   'PYMODULE'),
  ('logging.handlers',
   'd:\\anaconda\\envs\\gdal_enabled\\lib\\logging\\handlers.py',
   'PYMODULE'),
  ('smtplib', 'd:\\anaconda\\envs\\gdal_enabled\\lib\\smtplib.py', 'PYMODULE'),
  ('tornado.escape',
   'd:\\anaconda\\envs\\gdal_enabled\\lib\\site-packages\\tornado\\escape.py',
   'PYMODULE'),
  ('tornado.websocket',
   'd:\\anaconda\\envs\\gdal_enabled\\lib\\site-packages\\tornado\\websocket.py',
   'PYMODULE'),
  ('tornado.tcpclient',
   'd:\\anaconda\\envs\\gdal_enabled\\lib\\site-packages\\tornado\\tcpclient.py',
   'PYMODULE'),
  ('tornado.platform.auto',
   'd:\\anaconda\\envs\\gdal_enabled\\lib\\site-packages\\tornado\\platform\\auto.py',
   'PYMODULE'),
  ('tornado.platform',
   'd:\\anaconda\\envs\\gdal_enabled\\lib\\site-packages\\tornado\\platform\\__init__.py',
   'PYMODULE'),
  ('tornado.platform.posix',
   'd:\\anaconda\\envs\\gdal_enabled\\lib\\site-packages\\tornado\\platform\\posix.py',
   'PYMODULE'),
  ('tornado.platform.windows',
   'd:\\anaconda\\envs\\gdal_enabled\\lib\\site-packages\\tornado\\platform\\windows.py',
   'PYMODULE'),
  ('tornado.netutil',
   'd:\\anaconda\\envs\\gdal_enabled\\lib\\site-packages\\tornado\\netutil.py',
   'PYMODULE'),
  ('tornado.queues',
   'd:\\anaconda\\envs\\gdal_enabled\\lib\\site-packages\\tornado\\queues.py',
   'PYMODULE'),
  ('tornado.locks',
   'd:\\anaconda\\envs\\gdal_enabled\\lib\\site-packages\\tornado\\locks.py',
   'PYMODULE'),
  ('tornado.simple_httpclient',
   'd:\\anaconda\\envs\\gdal_enabled\\lib\\site-packages\\tornado\\simple_httpclient.py',
   'PYMODULE'),
  ('tornado.http1connection',
   'd:\\anaconda\\envs\\gdal_enabled\\lib\\site-packages\\tornado\\http1connection.py',
   'PYMODULE'),
  ('tornado.iostream',
   'd:\\anaconda\\envs\\gdal_enabled\\lib\\site-packages\\tornado\\iostream.py',
   'PYMODULE'),
  ('tornado.httputil',
   'd:\\anaconda\\envs\\gdal_enabled\\lib\\site-packages\\tornado\\httputil.py',
   'PYMODULE'),
  ('http.cookies',
   'd:\\anaconda\\envs\\gdal_enabled\\lib\\http\\cookies.py',
   'PYMODULE'),
  ('tornado.httpclient',
   'd:\\anaconda\\envs\\gdal_enabled\\lib\\site-packages\\tornado\\httpclient.py',
   'PYMODULE'),
  ('tornado.gen',
   'd:\\anaconda\\envs\\gdal_enabled\\lib\\site-packages\\tornado\\gen.py',
   'PYMODULE'),
  ('tornado.concurrent',
   'd:\\anaconda\\envs\\gdal_enabled\\lib\\site-packages\\tornado\\concurrent.py',
   'PYMODULE'),
  ('asyncio',
   'd:\\anaconda\\envs\\gdal_enabled\\lib\\asyncio\\__init__.py',
   'PYMODULE'),
  ('asyncio.unix_events',
   'd:\\anaconda\\envs\\gdal_enabled\\lib\\asyncio\\unix_events.py',
   'PYMODULE'),
  ('asyncio.log',
   'd:\\anaconda\\envs\\gdal_enabled\\lib\\asyncio\\log.py',
   'PYMODULE'),
  ('asyncio.windows_events',
   'd:\\anaconda\\envs\\gdal_enabled\\lib\\asyncio\\windows_events.py',
   'PYMODULE'),
  ('asyncio.windows_utils',
   'd:\\anaconda\\envs\\gdal_enabled\\lib\\asyncio\\windows_utils.py',
   'PYMODULE'),
  ('asyncio.selector_events',
   'd:\\anaconda\\envs\\gdal_enabled\\lib\\asyncio\\selector_events.py',
   'PYMODULE'),
  ('asyncio.proactor_events',
   'd:\\anaconda\\envs\\gdal_enabled\\lib\\asyncio\\proactor_events.py',
   'PYMODULE'),
  ('asyncio.base_subprocess',
   'd:\\anaconda\\envs\\gdal_enabled\\lib\\asyncio\\base_subprocess.py',
   'PYMODULE'),
  ('asyncio.subprocess',
   'd:\\anaconda\\envs\\gdal_enabled\\lib\\asyncio\\subprocess.py',
   'PYMODULE'),
  ('asyncio.streams',
   'd:\\anaconda\\envs\\gdal_enabled\\lib\\asyncio\\streams.py',
   'PYMODULE'),
  ('asyncio.queues',
   'd:\\anaconda\\envs\\gdal_enabled\\lib\\asyncio\\queues.py',
   'PYMODULE'),
  ('asyncio.runners',
   'd:\\anaconda\\envs\\gdal_enabled\\lib\\asyncio\\runners.py',
   'PYMODULE'),
  ('asyncio.tasks',
   'd:\\anaconda\\envs\\gdal_enabled\\lib\\asyncio\\tasks.py',
   'PYMODULE'),
  ('asyncio.locks',
   'd:\\anaconda\\envs\\gdal_enabled\\lib\\asyncio\\locks.py',
   'PYMODULE'),
  ('asyncio.base_tasks',
   'd:\\anaconda\\envs\\gdal_enabled\\lib\\asyncio\\base_tasks.py',
   'PYMODULE'),
  ('asyncio.sslproto',
   'd:\\anaconda\\envs\\gdal_enabled\\lib\\asyncio\\sslproto.py',
   'PYMODULE'),
  ('asyncio.transports',
   'd:\\anaconda\\envs\\gdal_enabled\\lib\\asyncio\\transports.py',
   'PYMODULE'),
  ('asyncio.base_events',
   'd:\\anaconda\\envs\\gdal_enabled\\lib\\asyncio\\base_events.py',
   'PYMODULE'),
  ('asyncio.protocols',
   'd:\\anaconda\\envs\\gdal_enabled\\lib\\asyncio\\protocols.py',
   'PYMODULE'),
  ('asyncio.futures',
   'd:\\anaconda\\envs\\gdal_enabled\\lib\\asyncio\\futures.py',
   'PYMODULE'),
  ('asyncio.events',
   'd:\\anaconda\\envs\\gdal_enabled\\lib\\asyncio\\events.py',
   'PYMODULE'),
  ('asyncio.coroutines',
   'd:\\anaconda\\envs\\gdal_enabled\\lib\\asyncio\\coroutines.py',
   'PYMODULE'),
  ('asyncio.base_futures',
   'd:\\anaconda\\envs\\gdal_enabled\\lib\\asyncio\\base_futures.py',
   'PYMODULE'),
  ('asyncio.format_helpers',
   'd:\\anaconda\\envs\\gdal_enabled\\lib\\asyncio\\format_helpers.py',
   'PYMODULE'),
  ('asyncio.constants',
   'd:\\anaconda\\envs\\gdal_enabled\\lib\\asyncio\\constants.py',
   'PYMODULE'),
  ('tornado.ioloop',
   'd:\\anaconda\\envs\\gdal_enabled\\lib\\site-packages\\tornado\\ioloop.py',
   'PYMODULE'),
  ('tornado.process',
   'd:\\anaconda\\envs\\gdal_enabled\\lib\\site-packages\\tornado\\process.py',
   'PYMODULE'),
  ('tornado.platform.asyncio',
   'd:\\anaconda\\envs\\gdal_enabled\\lib\\site-packages\\tornado\\platform\\asyncio.py',
   'PYMODULE'),
  ('tornado.web',
   'd:\\anaconda\\envs\\gdal_enabled\\lib\\site-packages\\tornado\\web.py',
   'PYMODULE'),
  ('tornado.autoreload',
   'd:\\anaconda\\envs\\gdal_enabled\\lib\\site-packages\\tornado\\autoreload.py',
   'PYMODULE'),
  ('tornado.routing',
   'd:\\anaconda\\envs\\gdal_enabled\\lib\\site-packages\\tornado\\routing.py',
   'PYMODULE'),
  ('tornado.locale',
   'd:\\anaconda\\envs\\gdal_enabled\\lib\\site-packages\\tornado\\locale.py',
   'PYMODULE'),
  ('tornado._locale_data',
   'd:\\anaconda\\envs\\gdal_enabled\\lib\\site-packages\\tornado\\_locale_data.py',
   'PYMODULE'),
  ('csv', 'd:\\anaconda\\envs\\gdal_enabled\\lib\\csv.py', 'PYMODULE'),
  ('tornado.httpserver',
   'd:\\anaconda\\envs\\gdal_enabled\\lib\\site-packages\\tornado\\httpserver.py',
   'PYMODULE'),
  ('tornado.tcpserver',
   'd:\\anaconda\\envs\\gdal_enabled\\lib\\site-packages\\tornado\\tcpserver.py',
   'PYMODULE'),
  ('tornado',
   'd:\\anaconda\\envs\\gdal_enabled\\lib\\site-packages\\tornado\\__init__.py',
   'PYMODULE'),
  ('matplotlib.backends.backend_webagg_core',
   'd:\\anaconda\\envs\\gdal_enabled\\lib\\site-packages\\matplotlib\\backends\\backend_webagg_core.py',
   'PYMODULE'),
  ('matplotlib.ticker',
   'd:\\anaconda\\envs\\gdal_enabled\\lib\\site-packages\\matplotlib\\ticker.py',
   'PYMODULE'),
  ('matplotlib.widgets',
   'd:\\anaconda\\envs\\gdal_enabled\\lib\\site-packages\\matplotlib\\widgets.py',
   'PYMODULE'),
  ('matplotlib.patches',
   'd:\\anaconda\\envs\\gdal_enabled\\lib\\site-packages\\matplotlib\\patches.py',
   'PYMODULE'),
  ('matplotlib.bezier',
   'd:\\anaconda\\envs\\gdal_enabled\\lib\\site-packages\\matplotlib\\bezier.py',
   'PYMODULE'),
  ('matplotlib.text',
   'd:\\anaconda\\envs\\gdal_enabled\\lib\\site-packages\\matplotlib\\text.py',
   'PYMODULE'),
  ('matplotlib.offsetbox',
   'd:\\anaconda\\envs\\gdal_enabled\\lib\\site-packages\\matplotlib\\offsetbox.py',
   'PYMODULE'),
  ('matplotlib.textpath',
   'd:\\anaconda\\envs\\gdal_enabled\\lib\\site-packages\\matplotlib\\textpath.py',
   'PYMODULE'),
  ('matplotlib.lines',
   'd:\\anaconda\\envs\\gdal_enabled\\lib\\site-packages\\matplotlib\\lines.py',
   'PYMODULE'),
  ('matplotlib.colors',
   'd:\\anaconda\\envs\\gdal_enabled\\lib\\site-packages\\matplotlib\\colors.py',
   'PYMODULE'),
  ('matplotlib._color_data',
   'd:\\anaconda\\envs\\gdal_enabled\\lib\\site-packages\\matplotlib\\_color_data.py',
   'PYMODULE'),
  ('matplotlib.cm',
   'd:\\anaconda\\envs\\gdal_enabled\\lib\\site-packages\\matplotlib\\cm.py',
   'PYMODULE'),
  ('matplotlib._cm_listed',
   'd:\\anaconda\\envs\\gdal_enabled\\lib\\site-packages\\matplotlib\\_cm_listed.py',
   'PYMODULE'),
  ('matplotlib._cm',
   'd:\\anaconda\\envs\\gdal_enabled\\lib\\site-packages\\matplotlib\\_cm.py',
   'PYMODULE'),
  ('matplotlib.scale',
   'd:\\anaconda\\envs\\gdal_enabled\\lib\\site-packages\\matplotlib\\scale.py',
   'PYMODULE'),
  ('matplotlib.mlab',
   'd:\\anaconda\\envs\\gdal_enabled\\lib\\site-packages\\matplotlib\\mlab.py',
   'PYMODULE'),
  ('matplotlib.projections',
   'd:\\anaconda\\envs\\gdal_enabled\\lib\\site-packages\\matplotlib\\projections\\__init__.py',
   'PYMODULE'),
  ('matplotlib.projections.polar',
   'd:\\anaconda\\envs\\gdal_enabled\\lib\\site-packages\\matplotlib\\projections\\polar.py',
   'PYMODULE'),
  ('matplotlib.spines',
   'd:\\anaconda\\envs\\gdal_enabled\\lib\\site-packages\\matplotlib\\spines.py',
   'PYMODULE'),
  ('matplotlib.axis',
   'd:\\anaconda\\envs\\gdal_enabled\\lib\\site-packages\\matplotlib\\axis.py',
   'PYMODULE'),
  ('matplotlib.projections.geo',
   'd:\\anaconda\\envs\\gdal_enabled\\lib\\site-packages\\matplotlib\\projections\\geo.py',
   'PYMODULE'),
  ('matplotlib.axes',
   'd:\\anaconda\\envs\\gdal_enabled\\lib\\site-packages\\matplotlib\\axes\\__init__.py',
   'PYMODULE'),
  ('matplotlib.axes._axes',
   'd:\\anaconda\\envs\\gdal_enabled\\lib\\site-packages\\matplotlib\\axes\\_axes.py',
   'PYMODULE'),
  ('matplotlib.container',
   'd:\\anaconda\\envs\\gdal_enabled\\lib\\site-packages\\matplotlib\\container.py',
   'PYMODULE'),
  ('matplotlib.axes._secondary_axes',
   'd:\\anaconda\\envs\\gdal_enabled\\lib\\site-packages\\matplotlib\\axes\\_secondary_axes.py',
   'PYMODULE'),
  ('matplotlib.axes._base',
   'd:\\anaconda\\envs\\gdal_enabled\\lib\\site-packages\\matplotlib\\axes\\_base.py',
   'PYMODULE'),
  ('matplotlib.tri',
   'd:\\anaconda\\envs\\gdal_enabled\\lib\\site-packages\\matplotlib\\tri\\__init__.py',
   'PYMODULE'),
  ('matplotlib.tri.triplot',
   'd:\\anaconda\\envs\\gdal_enabled\\lib\\site-packages\\matplotlib\\tri\\triplot.py',
   'PYMODULE'),
  ('matplotlib.tri.tripcolor',
   'd:\\anaconda\\envs\\gdal_enabled\\lib\\site-packages\\matplotlib\\tri\\tripcolor.py',
   'PYMODULE'),
  ('matplotlib.tri.trirefine',
   'd:\\anaconda\\envs\\gdal_enabled\\lib\\site-packages\\matplotlib\\tri\\trirefine.py',
   'PYMODULE'),
  ('matplotlib.tri.triinterpolate',
   'd:\\anaconda\\envs\\gdal_enabled\\lib\\site-packages\\matplotlib\\tri\\triinterpolate.py',
   'PYMODULE'),
  ('matplotlib.tri.trifinder',
   'd:\\anaconda\\envs\\gdal_enabled\\lib\\site-packages\\matplotlib\\tri\\trifinder.py',
   'PYMODULE'),
  ('matplotlib.tri.tritools',
   'd:\\anaconda\\envs\\gdal_enabled\\lib\\site-packages\\matplotlib\\tri\\tritools.py',
   'PYMODULE'),
  ('matplotlib.tri.tricontour',
   'd:\\anaconda\\envs\\gdal_enabled\\lib\\site-packages\\matplotlib\\tri\\tricontour.py',
   'PYMODULE'),
  ('matplotlib.tri.triangulation',
   'd:\\anaconda\\envs\\gdal_enabled\\lib\\site-packages\\matplotlib\\tri\\triangulation.py',
   'PYMODULE'),
  ('matplotlib.table',
   'd:\\anaconda\\envs\\gdal_enabled\\lib\\site-packages\\matplotlib\\table.py',
   'PYMODULE'),
  ('matplotlib.streamplot',
   'd:\\anaconda\\envs\\gdal_enabled\\lib\\site-packages\\matplotlib\\streamplot.py',
   'PYMODULE'),
  ('matplotlib.stackplot',
   'd:\\anaconda\\envs\\gdal_enabled\\lib\\site-packages\\matplotlib\\stackplot.py',
   'PYMODULE'),
  ('matplotlib.quiver',
   'd:\\anaconda\\envs\\gdal_enabled\\lib\\site-packages\\matplotlib\\quiver.py',
   'PYMODULE'),
  ('matplotlib.legend',
   'd:\\anaconda\\envs\\gdal_enabled\\lib\\site-packages\\matplotlib\\legend.py',
   'PYMODULE'),
  ('matplotlib.legend_handler',
   'd:\\anaconda\\envs\\gdal_enabled\\lib\\site-packages\\matplotlib\\legend_handler.py',
   'PYMODULE'),
  ('matplotlib.contour',
   'd:\\anaconda\\envs\\gdal_enabled\\lib\\site-packages\\matplotlib\\contour.py',
   'PYMODULE'),
  ('matplotlib.blocking_input',
   'd:\\anaconda\\envs\\gdal_enabled\\lib\\site-packages\\matplotlib\\blocking_input.py',
   'PYMODULE'),
  ('matplotlib.collections',
   'd:\\anaconda\\envs\\gdal_enabled\\lib\\site-packages\\matplotlib\\collections.py',
   'PYMODULE'),
  ('matplotlib.category',
   'd:\\anaconda\\envs\\gdal_enabled\\lib\\site-packages\\matplotlib\\category.py',
   'PYMODULE'),
  ('matplotlib.axes._subplots',
   'd:\\anaconda\\envs\\gdal_enabled\\lib\\site-packages\\matplotlib\\axes\\_subplots.py',
   'PYMODULE'),
  ('matplotlib._layoutbox',
   'd:\\anaconda\\envs\\gdal_enabled\\lib\\site-packages\\matplotlib\\_layoutbox.py',
   'PYMODULE'),
  ('matplotlib.artist',
   'd:\\anaconda\\envs\\gdal_enabled\\lib\\site-packages\\matplotlib\\artist.py',
   'PYMODULE'),
  ('matplotlib.gridspec',
   'd:\\anaconda\\envs\\gdal_enabled\\lib\\site-packages\\matplotlib\\gridspec.py',
   'PYMODULE'),
  ('matplotlib.tight_layout',
   'd:\\anaconda\\envs\\gdal_enabled\\lib\\site-packages\\matplotlib\\tight_layout.py',
   'PYMODULE'),
  ('matplotlib.figure',
   'd:\\anaconda\\envs\\gdal_enabled\\lib\\site-packages\\matplotlib\\figure.py',
   'PYMODULE'),
  ('matplotlib._constrained_layout',
   'd:\\anaconda\\envs\\gdal_enabled\\lib\\site-packages\\matplotlib\\_constrained_layout.py',
   'PYMODULE'),
  ('matplotlib.backend_bases',
   'd:\\anaconda\\envs\\gdal_enabled\\lib\\site-packages\\matplotlib\\backend_bases.py',
   'PYMODULE'),
  ('matplotlib.docstring',
   'd:\\anaconda\\envs\\gdal_enabled\\lib\\site-packages\\matplotlib\\docstring.py',
   'PYMODULE'),
  ('matplotlib.cbook',
   'd:\\anaconda\\envs\\gdal_enabled\\lib\\site-packages\\matplotlib\\cbook\\__init__.py',
   'PYMODULE'),
  ('matplotlib.cbook.deprecation',
   'd:\\anaconda\\envs\\gdal_enabled\\lib\\site-packages\\matplotlib\\cbook\\deprecation.py',
   'PYMODULE'),
  ('matplotlib._pylab_helpers',
   'd:\\anaconda\\envs\\gdal_enabled\\lib\\site-packages\\matplotlib\\_pylab_helpers.py',
   'PYMODULE'),
  ('matplotlib.style',
   'd:\\anaconda\\envs\\gdal_enabled\\lib\\site-packages\\matplotlib\\style\\__init__.py',
   'PYMODULE'),
  ('matplotlib.style.core',
   'd:\\anaconda\\envs\\gdal_enabled\\lib\\site-packages\\matplotlib\\style\\core.py',
   'PYMODULE'),
  ('matplotlib.rcsetup',
   'd:\\anaconda\\envs\\gdal_enabled\\lib\\site-packages\\matplotlib\\rcsetup.py',
   'PYMODULE'),
  ('matplotlib.image',
   'd:\\anaconda\\envs\\gdal_enabled\\lib\\site-packages\\matplotlib\\image.py',
   'PYMODULE'),
  ('matplotlib.colorbar',
   'd:\\anaconda\\envs\\gdal_enabled\\lib\\site-packages\\matplotlib\\colorbar.py',
   'PYMODULE'),
  ('matplotlib',
   'd:\\anaconda\\envs\\gdal_enabled\\lib\\site-packages\\matplotlib\\__init__.py',
   'PYMODULE'),
  ('matplotlib._version',
   'd:\\anaconda\\envs\\gdal_enabled\\lib\\site-packages\\matplotlib\\_version.py',
   'PYMODULE'),
  ('cycler',
   'd:\\anaconda\\envs\\gdal_enabled\\lib\\site-packages\\cycler.py',
   'PYMODULE'),
  ('osgeo.gdal',
   'd:\\anaconda\\envs\\gdal_enabled\\lib\\site-packages\\osgeo\\gdal.py',
   'PYMODULE'),
  ('osgeo.gdalnumeric',
   'd:\\anaconda\\envs\\gdal_enabled\\lib\\site-packages\\osgeo\\gdalnumeric.py',
   'PYMODULE'),
  ('osgeo.gdal_array',
   'd:\\anaconda\\envs\\gdal_enabled\\lib\\site-packages\\osgeo\\gdal_array.py',
   'PYMODULE'),
  ('osgeo.osr',
   'd:\\anaconda\\envs\\gdal_enabled\\lib\\site-packages\\osgeo\\osr.py',
   'PYMODULE'),
  ('osgeo.ogr',
   'd:\\anaconda\\envs\\gdal_enabled\\lib\\site-packages\\osgeo\\ogr.py',
   'PYMODULE'),
  ('osgeo.gdalconst',
   'd:\\anaconda\\envs\\gdal_enabled\\lib\\site-packages\\osgeo\\gdalconst.py',
   'PYMODULE'),
  ('osgeo',
   'd:\\anaconda\\envs\\gdal_enabled\\lib\\site-packages\\osgeo\\__init__.py',
   'PYMODULE'),
  ('mpl_toolkits.mplot3d',
   'd:\\anaconda\\envs\\gdal_enabled\\lib\\site-packages\\mpl_toolkits\\mplot3d\\__init__.py',
   'PYMODULE'),
  ('mpl_toolkits.mplot3d.axes3d',
   'd:\\anaconda\\envs\\gdal_enabled\\lib\\site-packages\\mpl_toolkits\\mplot3d\\axes3d.py',
   'PYMODULE'),
  ('mpl_toolkits.mplot3d.axis3d',
   'd:\\anaconda\\envs\\gdal_enabled\\lib\\site-packages\\mpl_toolkits\\mplot3d\\axis3d.py',
   'PYMODULE'),
  ('mpl_toolkits.mplot3d.art3d',
   'd:\\anaconda\\envs\\gdal_enabled\\lib\\site-packages\\mpl_toolkits\\mplot3d\\art3d.py',
   'PYMODULE'),
  ('mpl_toolkits.mplot3d.proj3d',
   'd:\\anaconda\\envs\\gdal_enabled\\lib\\site-packages\\mpl_toolkits\\mplot3d\\proj3d.py',
   'PYMODULE'),
  ('mpl_toolkits', '-', 'PYMODULE'),
  ('numpy',
   'd:\\anaconda\\envs\\gdal_enabled\\lib\\site-packages\\numpy\\__init__.py',
   'PYMODULE'),
  ('numpy.ctypeslib',
   'd:\\anaconda\\envs\\gdal_enabled\\lib\\site-packages\\numpy\\ctypeslib.py',
   'PYMODULE'),
  ('numpy.polynomial',
   'd:\\anaconda\\envs\\gdal_enabled\\lib\\site-packages\\numpy\\polynomial\\__init__.py',
   'PYMODULE'),
  ('numpy.polynomial.laguerre',
   'd:\\anaconda\\envs\\gdal_enabled\\lib\\site-packages\\numpy\\polynomial\\laguerre.py',
   'PYMODULE'),
  ('numpy.polynomial._polybase',
   'd:\\anaconda\\envs\\gdal_enabled\\lib\\site-packages\\numpy\\polynomial\\_polybase.py',
   'PYMODULE'),
  ('numpy.polynomial.hermite_e',
   'd:\\anaconda\\envs\\gdal_enabled\\lib\\site-packages\\numpy\\polynomial\\hermite_e.py',
   'PYMODULE'),
  ('numpy.polynomial.hermite',
   'd:\\anaconda\\envs\\gdal_enabled\\lib\\site-packages\\numpy\\polynomial\\hermite.py',
   'PYMODULE'),
  ('numpy.polynomial.legendre',
   'd:\\anaconda\\envs\\gdal_enabled\\lib\\site-packages\\numpy\\polynomial\\legendre.py',
   'PYMODULE'),
  ('numpy.polynomial.chebyshev',
   'd:\\anaconda\\envs\\gdal_enabled\\lib\\site-packages\\numpy\\polynomial\\chebyshev.py',
   'PYMODULE'),
  ('numpy.polynomial.polynomial',
   'd:\\anaconda\\envs\\gdal_enabled\\lib\\site-packages\\numpy\\polynomial\\polynomial.py',
   'PYMODULE'),
  ('numpy.polynomial.polyutils',
   'd:\\anaconda\\envs\\gdal_enabled\\lib\\site-packages\\numpy\\polynomial\\polyutils.py',
   'PYMODULE'),
  ('numpy._distributor_init',
   'd:\\anaconda\\envs\\gdal_enabled\\lib\\site-packages\\numpy\\_distributor_init.py',
   'PYMODULE'),
  ('Data_Handler',
   'E:\\DigLab\\PyCharm_Projects\\v0.2\\volume_calculator_tool_v0.2\\src\\Data_Handler.py',
   'PYMODULE'),
  ('DEM_Processor',
   'E:\\DigLab\\PyCharm_Projects\\v0.2\\volume_calculator_tool_v0.2\\src\\DEM_Processor.py',
   'PYMODULE'),
  ('CSV_Writer',
   'E:\\DigLab\\PyCharm_Projects\\v0.2\\volume_calculator_tool_v0.2\\src\\CSV_Writer.py',
   'PYMODULE'),
  ('tkinter.ttk',
   'd:\\anaconda\\envs\\gdal_enabled\\lib\\tkinter\\ttk.py',
   'PYMODULE'),
  ('tkinter.filedialog',
   'd:\\anaconda\\envs\\gdal_enabled\\lib\\tkinter\\filedialog.py',
   'PYMODULE'),
  ('tkinter.dialog',
   'd:\\anaconda\\envs\\gdal_enabled\\lib\\tkinter\\dialog.py',
   'PYMODULE'),
  ('tkinter',
   'd:\\anaconda\\envs\\gdal_enabled\\lib\\tkinter\\__init__.py',
   'PYMODULE'),
  ('tkinter.constants',
   'd:\\anaconda\\envs\\gdal_enabled\\lib\\tkinter\\constants.py',
   'PYMODULE')])
